<?xml version="1.0" encoding="utf-8"?>
<COLLADA xmlns="http://www.collada.org/2005/11/COLLADASchema" version="1.4.1">
  <asset>
    <contributor>
      <author>Blender User</author>
      <authoring_tool>Blender 2.78.0 commit date:2016-10-24, commit time:12:20, hash:e8299c8</authoring_tool>
    </contributor>
    <created>2016-10-24T19:28:35</created>
    <modified>2016-10-24T19:28:35</modified>
    <unit name="meter" meter="1"/>
    <up_axis>Z_UP</up_axis>
  </asset>
  <library_cameras>
    <camera id="Camera-camera" name="Camera">
      <optics>
        <technique_common>
          <perspective>
            <xfov sid="xfov">49.13434</xfov>
            <aspect_ratio>1.777778</aspect_ratio>
            <znear sid="znear">0.1</znear>
            <zfar sid="zfar">100</zfar>
          </perspective>
        </technique_common>
      </optics>
      <extra>
        <technique profile="blender">
          <YF_dofdist>0</YF_dofdist>
          <shiftx>0</shiftx>
          <shifty>0</shifty>
        </technique>
      </extra>
    </camera>
  </library_cameras>
  <library_lights>
    <light id="Lamp-light" name="Lamp">
      <technique_common>
        <point>
          <color sid="color">1 1 1</color>
          <constant_attenuation>1</constant_attenuation>
          <linear_attenuation>0</linear_attenuation>
          <quadratic_attenuation>0.00111109</quadratic_attenuation>
        </point>
      </technique_common>
      <extra>
        <technique profile="blender">
          <adapt_thresh>0.000999987</adapt_thresh>
          <area_shape>1</area_shape>
          <area_size>0.1</area_size>
          <area_sizey>0.1</area_sizey>
          <area_sizez>1</area_sizez>
          <atm_distance_factor>1</atm_distance_factor>
          <atm_extinction_factor>1</atm_extinction_factor>
          <atm_turbidity>2</atm_turbidity>
          <att1>0</att1>
          <att2>1</att2>
          <backscattered_light>1</backscattered_light>
          <bias>1</bias>
          <blue>1</blue>
          <buffers>1</buffers>
          <bufflag>0</bufflag>
          <bufsize>2880</bufsize>
          <buftype>2</buftype>
          <clipend>30.002</clipend>
          <clipsta>1.000799</clipsta>
          <compressthresh>0.04999995</compressthresh>
          <dist sid="blender_dist">29.99998</dist>
          <energy sid="blender_energy">1</energy>
          <falloff_type>2</falloff_type>
          <filtertype>0</filtertype>
          <flag>0</flag>
          <gamma sid="blender_gamma">1</gamma>
          <green>1</green>
          <halo_intensity sid="blnder_halo_intensity">1</halo_intensity>
          <horizon_brightness>1</horizon_brightness>
          <mode>8192</mode>
          <ray_samp>1</ray_samp>
          <ray_samp_method>1</ray_samp_method>
          <ray_samp_type>0</ray_samp_type>
          <ray_sampy>1</ray_sampy>
          <ray_sampz>1</ray_sampz>
          <red>1</red>
          <samp>3</samp>
          <shadhalostep>0</shadhalostep>
          <shadow_b sid="blender_shadow_b">0</shadow_b>
          <shadow_g sid="blender_shadow_g">0</shadow_g>
          <shadow_r sid="blender_shadow_r">0</shadow_r>
          <sky_colorspace>0</sky_colorspace>
          <sky_exposure>1</sky_exposure>
          <skyblendfac>1</skyblendfac>
          <skyblendtype>1</skyblendtype>
          <soft>3</soft>
          <spotblend>0.15</spotblend>
          <spotsize>75</spotsize>
          <spread>1</spread>
          <sun_brightness>1</sun_brightness>
          <sun_effect_type>0</sun_effect_type>
          <sun_intensity>1</sun_intensity>
          <sun_size>1</sun_size>
          <type>0</type>
        </technique>
      </extra>
    </light>
  </library_lights>
  <library_images/>
  <library_geometries>
    <geometry id="Circle-mesh" name="Circle">
      <mesh>
        <source id="Circle-mesh-positions">
          <float_array id="Circle-mesh-positions-array" count="96">0 0.7678732 -0.01371777 0 0.7678731 0.9550484 0.2938525 0.7094224 -0.01371777 0.2938525 0.7094222 0.9550484 0.5429684 0.5429684 -0.01371777 0.5429684 0.5429682 0.9550484 0.7094224 0.2938523 -0.01371777 0.7094224 0.2938523 0.9550484 0.7678732 0 -0.01371783 0.7678732 -1.60118e-7 0.9550484 0.7094224 -0.2938524 -0.01371783 0.7094224 -0.2938525 0.9550484 0.5429684 -0.5429684 -0.01371783 0.5429684 -0.5429686 0.9550484 0.2938525 -0.7094224 -0.01371783 0.2938525 -0.7094225 0.9550484 2.04743e-7 -0.7678733 -0.01371783 2.04743e-7 -0.7678734 0.9550484 -0.2938521 -0.7094224 -0.01371783 -0.2938521 -0.7094225 0.9550484 -0.5429682 -0.5429685 -0.01371783 -0.5429682 -0.5429686 0.9550484 -0.7094223 -0.2938524 -0.01371783 -0.7094223 -0.2938526 0.9550484 -0.7678732 0 -0.01371783 -0.7678732 0 0.9550484 -0.7094223 0.2938525 -0.01371777 -0.7094223 0.2938524 0.9550484 -0.5429682 0.5429685 -0.01371777 -0.5429682 0.5429683 0.9550484 -0.2938519 0.7094225 -0.01371777 -0.2938519 0.7094224 0.9550484</float_array>
          <technique_common>
            <accessor source="#Circle-mesh-positions-array" count="32" stride="3">
              <param name="X" type="float"/>
              <param name="Y" type="float"/>
              <param name="Z" type="float"/>
            </accessor>
          </technique_common>
        </source>
        <source id="Circle-mesh-normals">
          <float_array id="Circle-mesh-normals-array" count="129">0.1950901 0.9807853 0 0.5555703 0.8314696 0 0.8314696 0.5555703 0 0.9807854 0.1950901 0 0.9807854 -0.1950899 0 0.8314698 -0.55557 0 0.5555704 -0.8314695 0 0.1950904 -0.9807854 -3.08033e-7 -0.1950904 -0.9807853 -3.08033e-7 -0.5555699 -0.8314698 -2.05355e-7 -0.8314697 -0.5555701 0 -0.9807853 -0.1950904 0 -0.9807854 0.1950904 0 -0.8314693 0.5555707 0 -1.42961e-7 0 1 -0.5555701 0.8314698 0 -0.19509 0.9807854 0 0.1950905 0.9807853 0 0.5555704 0.8314695 2.05355e-7 0.8314695 0.5555704 0 0.9807854 0.1950899 0 0.9807853 -0.1950904 0 0.8314698 -0.5555702 0 0.5555704 -0.8314695 0 0.1950902 -0.9807853 0 -0.1950902 -0.9807853 0 -0.5555699 -0.83147 0 -0.8314695 -0.5555705 0 -0.9807853 -0.1950903 0 -0.9807854 0.1950899 0 -0.8314692 0.5555709 0 2.16891e-7 0 1 0 0 1 1.73512e-6 0 1 1.73512e-6 0 1 1.64874e-7 0 1 8.67562e-7 0 1 -3.47024e-6 0 1 5.71842e-7 0 1 -4.88097e-7 0 1 -3.04647e-7 0 1 -0.5555701 0.8314697 0 -0.19509 0.9807854 2.05356e-7</float_array>
          <technique_common>
            <accessor source="#Circle-mesh-normals-array" count="43" stride="3">
              <param name="X" type="float"/>
              <param name="Y" type="float"/>
              <param name="Z" type="float"/>
            </accessor>
          </technique_common>
        </source>
        <source id="Circle-mesh-map-0">
          <float_array id="Circle-mesh-map-0-array" count="276">0.2277676 0.340075 0.2290179 0.3322914 0.2321551 0.3335773 0.2274354 0.3399817 0.2256374 0.3322916 0.2290179 0.3322914 0.2270832 0.3400068 0.2225071 0.3335708 0.2256374 0.3322916 0.2267735 0.3401446 0.2200926 0.3359569 0.2225071 0.3335708 0.2042261 0.6938371 0.196453 0.6925387 0.1977698 0.6894016 0.2264427 0.3407079 0.218767 0.3424995 0.2187759 0.339094 0.2264696 0.3410418 0.220068 0.3456469 0.218767 0.3424995 0.2266257 0.3413422 0.2224761 0.3480532 0.220068 0.3456469 0.2224761 0.3480532 0.2272179 0.3416658 0.2256196 0.3493536 0.2256196 0.3493536 0.2275639 0.3416412 0.229019 0.3493549 0.229019 0.3493549 0.2278729 0.3414877 0.2321621 0.3480578 0.2321621 0.3480578 0.228098 0.3412299 0.234571 0.3456565 0.228098 0.3412299 0.2358765 0.3425149 0.234571 0.3456565 0.2358765 0.3425149 0.228182 0.340577 0.2358765 0.3391126 0.1860235 0.6820863 0.1860235 0.6820863 0.1860235 0.6820863 0.228182 0.340577 0.2345679 0.3359716 0.2358765 0.3391126 0.2280285 0.3402832 0.2321551 0.3335773 0.2345679 0.3359716 0.2277676 0.340075 0.2274354 0.3399817 0.2290179 0.3322914 0.2274354 0.3399817 0.2270832 0.3400068 0.2256374 0.3322916 0.2270832 0.3400068 0.2267735 0.3401446 0.2225071 0.3335708 0.2267735 0.3401446 0.226549 0.3403923 0.2200926 0.3359569 0.2042261 0.6938371 0.2041199 0.6941527 0.196453 0.6925387 0.2264427 0.3407079 0.2264696 0.3410418 0.218767 0.3424995 0.2264696 0.3410418 0.2266257 0.3413422 0.220068 0.3456469 0.2266257 0.3413422 0.2268883 0.3415619 0.2224761 0.3480532 0.2224761 0.3480532 0.2268883 0.3415619 0.2272179 0.3416658 0.2256196 0.3493536 0.2272179 0.3416658 0.2275639 0.3416412 0.229019 0.3493549 0.2275639 0.3416412 0.2278729 0.3414877 0.2321621 0.3480578 0.2278729 0.3414877 0.228098 0.3412299 0.228098 0.3412299 0.2282055 0.3409088 0.2358765 0.3425149 0.2358765 0.3425149 0.2282055 0.3409088 0.228182 0.340577 0.1860235 0.6820863 0.1860235 0.6820863 0.1860235 0.6820863 0.1860235 0.6820863 0.1860235 0.6820863 0.1860235 0.6820863 0.1860235 0.6820863 0.1860235 0.6820863 0.1860235 0.6820863 0.1860235 0.6820863 0.1860235 0.6820863 0.1860235 0.6820863 0.1860235 0.6820863 0.1860235 0.6820863 0.1860235 0.6820863 0.1860235 0.6820863 0.1860235 0.6820863 0.1860235 0.6820863 0.1860235 0.6820863 0.1860235 0.6820863 0.1860235 0.6820863 0.1860235 0.6820863 0.1860235 0.6820863 0.1860235 0.6820863 0.1860235 0.6820863 0.1860235 0.6820863 0.1860235 0.6820863 0.1860235 0.6820863 0.1860235 0.6820863 0.1860235 0.6820863 0.1860235 0.6820863 0.1860235 0.6820863 0.1860235 0.6820863 0.1860235 0.6820863 0.1860235 0.6820863 0.1860235 0.6820863 0.1860235 0.6820863 0.1860235 0.6820863 0.1860235 0.6820863 0.228182 0.340577 0.2280285 0.3402832 0.2345679 0.3359716 0.2280285 0.3402832 0.2277676 0.340075 0.2321551 0.3335773</float_array>
          <technique_common>
            <accessor source="#Circle-mesh-map-0-array" count="138" stride="2">
              <param name="S" type="float"/>
              <param name="T" type="float"/>
            </accessor>
          </technique_common>
        </source>
        <vertices id="Circle-mesh-vertices">
          <input semantic="POSITION" source="#Circle-mesh-positions"/>
        </vertices>
        <polylist count="46">
          <input semantic="VERTEX" source="#Circle-mesh-vertices" offset="0"/>
          <input semantic="NORMAL" source="#Circle-mesh-normals" offset="1"/>
          <input semantic="TEXCOORD" source="#Circle-mesh-map-0" offset="2" set="0"/>
          <vcount>3 3 3 3 3 3 3 3 3 3 3 3 3 3 3 3 3 3 3 3 3 3 3 3 3 3 3 3 3 3 3 3 3 3 3 3 3 3 3 3 3 3 3 3 3 3 </vcount>
          <p>1 0 0 2 0 1 0 0 2 3 1 3 4 1 4 2 1 5 5 2 6 6 2 7 4 2 8 7 3 9 8 3 10 6 3 11 9 4 12 10 4 13 8 4 14 11 5 15 12 5 16 10 5 17 13 6 18 14 6 19 12 6 20 15 7 21 16 7 22 14 7 23 16 8 24 19 8 25 18 8 26 18 9 27 21 9 28 20 9 29 20 10 30 23 10 31 22 10 32 22 11 33 25 11 34 24 11 35 25 12 36 26 12 37 24 12 38 26 13 39 29 13 40 28 13 41 21 14 42 9 14 43 5 14 44 29 15 45 30 15 46 28 15 47 31 16 48 0 16 49 30 16 50 1 17 51 3 17 52 2 17 53 3 18 54 5 18 55 4 18 56 5 19 57 7 19 58 6 19 59 7 20 60 9 20 61 8 20 62 9 21 63 11 21 64 10 21 65 11 22 66 13 22 67 12 22 68 13 23 69 15 23 70 14 23 71 15 24 72 17 24 73 16 24 74 16 25 75 17 25 76 19 25 77 18 26 78 19 26 79 21 26 80 20 27 81 21 27 82 23 27 83 22 28 84 23 28 85 25 28 86 25 29 87 27 29 88 26 29 89 26 30 90 27 30 91 29 30 92 5 31 93 3 31 94 1 31 95 1 32 96 31 32 97 29 32 98 29 33 99 27 33 100 25 33 101 25 34 102 23 34 103 21 34 104 21 35 105 19 35 106 13 35 107 17 36 108 15 36 109 13 36 110 13 37 111 11 37 112 9 37 113 9 32 114 7 32 115 5 32 116 5 38 117 1 38 118 21 38 119 29 39 120 25 39 121 21 39 122 19 40 123 17 40 124 13 40 125 13 32 126 9 32 127 21 32 128 1 32 129 29 32 130 21 32 131 29 41 132 31 41 133 30 41 134 31 42 135 1 42 136 0 42 137</p>
        </polylist>
      </mesh>
    </geometry>
  </library_geometries>
  <library_controllers/>
  <library_visual_scenes>
    <visual_scene id="Scene" name="Scene">
      <node id="Camera" name="Camera" type="NODE">
        <matrix sid="transform">0.6858805 -0.3173701 0.6548619 7.481132 0.7276338 0.3124686 -0.6106656 -6.50764 -0.01081678 0.8953432 0.4452454 5.343665 0 0 0 1</matrix>
        <instance_camera url="#Camera-camera"/>
      </node>
      <node id="Lamp" name="Lamp" type="NODE">
        <matrix sid="transform">-0.2908646 -0.7711008 0.5663932 4.076245 0.9551712 -0.1998834 0.2183912 1.005454 -0.05518906 0.6045247 0.7946723 5.903862 0 0 0 1</matrix>
        <instance_light url="#Lamp-light"/>
      </node>
      <node id="Circle" name="Circle" type="NODE">
        <matrix sid="transform">0.3989818 0 0 0 0 0.3989818 5.36067e-8 0 0 -5.36067e-8 0.3989818 0 0 0 0 1</matrix>
        <instance_geometry url="#Circle-mesh" name="Circle"/>
      </node>
    </visual_scene>
  </library_visual_scenes>
  <scene>
    <instance_visual_scene url="#Scene"/>
  </scene>
</COLLADA>