<?xml version="1.0" encoding="utf-8"?>
<COLLADA xmlns="http://www.collada.org/2005/11/COLLADASchema" version="1.4.1">
  <asset>
    <contributor>
      <author>Blender User</author>
      <authoring_tool>Blender 2.78.0 commit date:2016-10-24, commit time:12:20, hash:e8299c8</authoring_tool>
    </contributor>
    <created>2016-11-19T21:29:37</created>
    <modified>2016-11-19T21:29:37</modified>
    <unit name="meter" meter="1"/>
    <up_axis>Z_UP</up_axis>
  </asset>
  <library_cameras>
    <camera id="Camera-camera" name="Camera">
      <optics>
        <technique_common>
          <perspective>
            <xfov sid="xfov">49.13434</xfov>
            <aspect_ratio>1.777778</aspect_ratio>
            <znear sid="znear">0.1</znear>
            <zfar sid="zfar">100</zfar>
          </perspective>
        </technique_common>
      </optics>
      <extra>
        <technique profile="blender">
          <YF_dofdist>0</YF_dofdist>
          <shiftx>0</shiftx>
          <shifty>0</shifty>
        </technique>
      </extra>
    </camera>
  </library_cameras>
  <library_lights>
    <light id="Lamp-light" name="Lamp">
      <technique_common>
        <point>
          <color sid="color">1 1 1</color>
          <constant_attenuation>1</constant_attenuation>
          <linear_attenuation>0</linear_attenuation>
          <quadratic_attenuation>0.00111109</quadratic_attenuation>
        </point>
      </technique_common>
      <extra>
        <technique profile="blender">
          <adapt_thresh>0.000999987</adapt_thresh>
          <area_shape>1</area_shape>
          <area_size>0.1</area_size>
          <area_sizey>0.1</area_sizey>
          <area_sizez>1</area_sizez>
          <atm_distance_factor>1</atm_distance_factor>
          <atm_extinction_factor>1</atm_extinction_factor>
          <atm_turbidity>2</atm_turbidity>
          <att1>0</att1>
          <att2>1</att2>
          <backscattered_light>1</backscattered_light>
          <bias>1</bias>
          <blue>1</blue>
          <buffers>1</buffers>
          <bufflag>0</bufflag>
          <bufsize>2880</bufsize>
          <buftype>2</buftype>
          <clipend>30.002</clipend>
          <clipsta>1.000799</clipsta>
          <compressthresh>0.04999995</compressthresh>
          <dist sid="blender_dist">29.99998</dist>
          <energy sid="blender_energy">1</energy>
          <falloff_type>2</falloff_type>
          <filtertype>0</filtertype>
          <flag>0</flag>
          <gamma sid="blender_gamma">1</gamma>
          <green>1</green>
          <halo_intensity sid="blnder_halo_intensity">1</halo_intensity>
          <horizon_brightness>1</horizon_brightness>
          <mode>8192</mode>
          <ray_samp>1</ray_samp>
          <ray_samp_method>1</ray_samp_method>
          <ray_samp_type>0</ray_samp_type>
          <ray_sampy>1</ray_sampy>
          <ray_sampz>1</ray_sampz>
          <red>1</red>
          <samp>3</samp>
          <shadhalostep>0</shadhalostep>
          <shadow_b sid="blender_shadow_b">0</shadow_b>
          <shadow_g sid="blender_shadow_g">0</shadow_g>
          <shadow_r sid="blender_shadow_r">0</shadow_r>
          <sky_colorspace>0</sky_colorspace>
          <sky_exposure>1</sky_exposure>
          <skyblendfac>1</skyblendfac>
          <skyblendtype>1</skyblendtype>
          <soft>3</soft>
          <spotblend>0.15</spotblend>
          <spotsize>75</spotsize>
          <spread>1</spread>
          <sun_brightness>1</sun_brightness>
          <sun_effect_type>0</sun_effect_type>
          <sun_intensity>1</sun_intensity>
          <sun_size>1</sun_size>
          <type>0</type>
        </technique>
      </extra>
    </light>
  </library_lights>
  <library_images/>
  <library_geometries>
    <geometry id="Circle-mesh" name="Circle">
      <mesh>
        <source id="Circle-mesh-positions">
          <float_array id="Circle-mesh-positions-array" count="195">1.21721e-7 0.5789773 -0.1047003 0 -1.28916e-7 0.8734927 0.2215651 0.5349053 -0.1047003 0.4093989 0.4093989 -0.1047003 0.5349054 0.221565 -0.1047003 0.5789774 0 -0.1047003 0.5349054 -0.221565 -0.1047003 0.4093989 -0.4093987 -0.1047003 0.2215651 -0.5349052 -0.1047003 2.09144e-7 -0.5789773 -0.1047003 -0.2215647 -0.5349053 -0.1047003 -0.4093985 -0.4093989 -0.1047003 -0.5349051 -0.221565 -0.1047003 -0.5789772 0 -0.1047003 -0.5349051 0.2215651 -0.1047003 -0.4093986 0.409399 -0.1047003 -0.2215647 0.5349054 -0.1047003 0 1.002764 0.01320368 0 0.5143657 0.5497922 0.3837414 0.9264334 0.01320368 0.1968393 0.4752119 0.5497922 0.7090616 0.7090615 0.01320368 0.3637115 0.3637114 0.5497922 0.9264335 0.3837413 0.01320368 0.4752119 0.1968391 0.5497922 1.002764 0 0.01320368 0.5143657 0 0.5497922 0.9264335 -0.3837413 0.01320368 0.4752119 -0.1968393 0.5497922 0.7090616 -0.7090616 0.01320368 0.3637115 -0.3637115 0.5497922 0.3837414 -0.9264335 0.01320368 0.1968393 -0.4752119 0.5497922 2.2984e-7 -1.002764 0.01320368 1.79586e-7 -0.5143656 0.5497922 -0.383741 -0.9264336 0.01320368 -0.196839 -0.475212 0.5497922 -0.7090613 -0.7090617 0.01320368 -0.3637112 -0.3637117 0.5497922 -0.9264335 -0.3837414 0.01320368 -0.4752118 -0.1968393 0.5497922 -1.002764 0 0.01320368 -0.5143656 0 0.5497922 -0.9264335 0.3837416 0.01320368 -0.4752118 0.1968392 0.5497922 -0.7090613 0.7090619 0.01320368 -0.3637112 0.3637115 0.5497922 -0.3837408 0.9264336 0.01320368 -0.1968389 0.475212 0.5497922 0.2531581 0.6111773 -0.125199 0 0.6615337 -0.125199 0.4677751 0.4677748 -0.125199 0.6111775 0.2531577 -0.125199 0.6615337 -2.13664e-7 -0.125199 0.6111775 -0.2531582 -0.125199 0.4677751 -0.4677751 -0.125199 0.2531581 -0.6111775 -0.125199 2.14617e-7 -0.6615336 -0.125199 -0.2531577 -0.6111775 -0.125199 -0.4677748 -0.4677753 -0.125199 -0.6111773 -0.2531582 -0.125199 -0.6615336 -1.76859e-7 -0.125199 -0.6111773 0.2531579 -0.125199 -0.4677748 0.4677749 -0.125199 -0.2531576 0.6111775 -0.125199</float_array>
          <technique_common>
            <accessor source="#Circle-mesh-positions-array" count="65" stride="3">
              <param name="X" type="float"/>
              <param name="Y" type="float"/>
              <param name="Z" type="float"/>
            </accessor>
          </technique_common>
        </source>
        <source id="Circle-mesh-normals">
          <float_array id="Circle-mesh-normals-array" count="273">0.1687216 0.8482215 0.5020492 0.4804786 0.7190876 0.5020492 0.7190876 0.4804785 0.5020493 0.8482214 0.1687217 0.5020492 0.8482214 -0.1687218 0.5020492 0.7190875 -0.4804788 0.5020491 0.4804788 -0.7190876 0.502049 0.1687221 -0.8482215 0.502049 -0.1687216 -0.8482216 0.502049 -0.4804788 -0.7190876 0.5020491 -0.7190873 -0.4804792 0.502049 -0.8482214 -0.1687217 0.5020492 -0.8482214 0.1687217 0.5020493 -0.7190874 0.4804788 0.5020493 -0.4804782 0.7190878 0.5020493 -0.1687213 0.8482215 0.5020493 0 0 -1 0.1455364 0.7316607 0.6659519 0.4144523 0.620272 0.6659519 0.620272 0.4144523 0.665952 0.7316607 0.1455363 0.6659519 0.7316607 -0.1455364 0.6659519 0.6202722 -0.4144521 0.6659519 0.4144524 -0.620272 0.6659519 0.1455363 -0.7316609 0.6659517 -0.145536 -0.7316606 0.665952 -0.4144523 -0.620272 0.6659519 -0.6202718 -0.4144525 0.665952 -0.7316606 -0.1455363 0.665952 -0.7316606 0.1455363 0.665952 -0.6202718 0.4144525 0.665952 0.8130871 0.5432876 -0.2091125 -0.4144518 0.6202723 0.6659519 -0.1455361 0.7316605 0.6659522 0 0 1 0.1907773 -0.9591018 -0.2091123 -0.9591018 -0.1907768 -0.2091124 0.1907766 0.9591018 -0.2091123 0.8130869 -0.543288 -0.2091124 -0.5432876 -0.8130871 -0.2091124 -0.5432875 0.8130871 -0.2091125 0.9591016 0.1907777 -0.2091124 -0.9591018 0.1907768 -0.2091125 0.5432867 0.8130877 -0.2091127 0.5432872 -0.8130874 -0.2091122 -0.8130872 -0.5432875 -0.2091124 -0.1907769 0.9591017 -0.2091124 0.9591017 -0.1907773 -0.2091123 -0.1907775 -0.9591017 -0.2091123 -0.8130871 0.5432878 -0.2091126 -1.90751e-7 0 -1 0 0 -1 -1.9075e-7 0 -1 0 0 -1 -1.81254e-7 0 -1 0 0 -1 0 0 -1 0 0 -1 0.1455365 0.7316606 0.665952 0.4144524 0.6202722 0.6659517 0.6202723 0.4144523 0.6659517 0.7316607 0.1455363 0.6659519 0.7316607 -0.1455363 0.6659519 0.6202721 -0.4144526 0.6659517 0.4144524 -0.6202719 0.6659519 0.1455361 -0.7316606 0.665952 -0.1455358 -0.7316608 0.6659518 -0.4144521 -0.6202722 0.665952 -0.6202719 -0.4144528 0.6659518 -0.7316607 -0.1455363 0.6659519 -0.7316607 0.1455363 0.6659519 -0.6202715 0.4144527 0.6659522 0.8130871 0.5432876 -0.2091124 -0.4144524 0.620272 0.6659518 -0.1455363 0.7316607 0.6659518 0 0 1 0.1907771 -0.9591017 -0.2091123 -0.9591018 -0.1907769 -0.2091125 0.1907767 0.9591018 -0.2091124 0.8130871 -0.5432875 -0.2091122 -0.5432873 -0.8130873 -0.2091123 -0.5432873 0.8130873 -0.2091127 0.9591017 0.1907774 -0.2091124 -0.9591017 0.1907769 -0.2091125 0.543287 0.8130876 -0.2091125 0.5432876 -0.8130872 -0.2091125 -0.8130876 -0.5432871 -0.2091123 -0.1907768 0.9591018 -0.2091125 0.9591016 -0.1907777 -0.2091124 -0.1907777 -0.9591016 -0.2091125 -0.8130872 0.5432873 -0.2091125</float_array>
          <technique_common>
            <accessor source="#Circle-mesh-normals-array" count="91" stride="3">
              <param name="X" type="float"/>
              <param name="Y" type="float"/>
              <param name="Z" type="float"/>
            </accessor>
          </technique_common>
        </source>
        <source id="Circle-mesh-map-0">
          <float_array id="Circle-mesh-map-0-array" count="648">0.1925862 0.2989791 0.1925862 0.2989791 0.1925862 0.2989791 0.1925862 0.2989791 0.1925862 0.2989791 0.1925862 0.2989791 0.1925862 0.2989791 0.1925862 0.2989791 0.1925862 0.2989791 0.1925862 0.2989791 0.1925862 0.2989791 0.1925862 0.2989791 0.1925862 0.2989791 0.1925862 0.2989791 0.1925862 0.2989791 0.1925862 0.2989791 0.1925862 0.2989791 0.1925862 0.2989791 0.1925862 0.2989791 0.1925862 0.2989791 0.1925862 0.2989791 0.1925862 0.2989791 0.1925862 0.2989791 0.1925862 0.2989791 0.1925862 0.2989791 0.1925862 0.2989791 0.1925862 0.2989791 0.1925862 0.2989791 0.1925862 0.2989791 0.1925862 0.2989791 0.1925862 0.2989791 0.1925862 0.2989791 0.1925862 0.2989791 0.1925862 0.2989791 0.1925862 0.2989791 0.1925862 0.2989791 0.1925862 0.2989791 0.1925862 0.2989791 0.1925862 0.2989791 0.1925862 0.2989791 0.1925862 0.2989791 0.1925862 0.2989791 0.1925862 0.2989791 0.1925862 0.2989791 0.1925862 0.2989791 0.1925862 0.2989791 0.1925862 0.2989791 0.1925862 0.2989791 0.1925862 0.2989791 0.1925862 0.2989791 0.1925862 0.2989791 0.1711301 0.4113126 0.1598438 0.4041343 0.1687757 0.4008703 0.1598438 0.4041343 0.1630418 0.4160805 0.1530075 0.4101654 0.1630418 0.4160805 0.1493077 0.4180455 0.1530075 0.4101654 0.161144 0.4201226 0.1493077 0.4265748 0.1493077 0.4180455 0.161144 0.4244977 0.1530075 0.4344549 0.1493077 0.4265748 0.1530075 0.4344549 0.1665485 0.4316334 0.1598438 0.440486 0.1665485 0.4316334 0.1687757 0.44375 0.1598438 0.440486 0.1711301 0.4333077 0.1784437 0.44375 0.1687757 0.44375 0.1784437 0.44375 0.1806709 0.4316334 0.1873757 0.440486 0.1873757 0.440486 0.1841776 0.4285398 0.194212 0.4344549 0.194212 0.4344549 0.1860754 0.4244977 0.1979117 0.4265748 0.1860754 0.4244977 0.1979117 0.4180455 0.1979117 0.4265748 0.1979117 0.4180455 0.1841776 0.4160805 0.194212 0.4101654 0.194212 0.4101654 0.1806709 0.4129869 0.1873757 0.4041343 0.1955023 0.5333806 0.1798582 0.5291585 0.1964253 0.5316691 0.1806709 0.4129869 0.1784437 0.4008703 0.1873757 0.4041343 0.1760893 0.4113126 0.1687757 0.4008703 0.1784437 0.4008703 0.04044252 0.4572834 0.02759927 0.440326 0.05966383 0.4459528 0.214668 0.531826 0.1969618 0.5331372 0.1979529 0.5291585 0.213924 0.5567077 0.1964253 0.5594298 0.1970036 0.5553881 0.1948856 0.5365009 0.1775993 0.5405871 0.1778778 0.5353729 0.2134803 0.5433368 0.1964253 0.5383358 0.2134803 0.5389617 0.2134744 0.5639091 0.1970036 0.5702535 0.1964253 0.5646498 0.1955023 0.5489483 0.1778778 0.5462086 0.1948856 0.5449262 0.214668 0.5504725 0.1969618 0.5491612 0.2138974 0.5473789 0.2147547 0.5549599 0.1970036 0.5553881 0.1980719 0.5531401 0.1955023 0.5333806 0.1778778 0.5353729 0.178671 0.5313597 0.2134803 0.5389617 0.1969618 0.5331372 0.2138974 0.5349196 0.2134744 0.5598503 0.1964253 0.5646498 0.1964253 0.5594298 0.1948856 0.5449262 0.1775993 0.5405871 0.194669 0.5405552 0.2138974 0.5473789 0.1964253 0.5439627 0.2134803 0.5433368 0.2147547 0.5722582 0.1970036 0.5702535 0.213924 0.5682662 0.1955023 0.5489483 0.1798582 0.5553184 0.178671 0.5513815 0.1925862 0.2989791 0.1925862 0.2989791 0.1925862 0.2989791 0.1925862 0.2989791 0.1925862 0.2989791 0.1925862 0.2989791 0.1925862 0.2989791 0.1925862 0.2989791 0.1925862 0.2989791 0.1925862 0.2989791 0.1925862 0.2989791 0.1925862 0.2989791 0.1925862 0.2989791 0.1925862 0.2989791 0.1925862 0.2989791 0.1925862 0.2989791 0.1925862 0.2989791 0.1925862 0.2989791 0.1925862 0.2989791 0.1925862 0.2989791 0.1925862 0.2989791 0.1925862 0.2989791 0.1925862 0.2989791 0.1925862 0.2989791 0.1925862 0.2989791 0.1925862 0.2989791 0.1925862 0.2989791 0.1925862 0.2989791 0.1925862 0.2989791 0.1925862 0.2989791 0.1925862 0.2989791 0.1925862 0.2989791 0.1925862 0.2989791 0.1925862 0.2989791 0.1925862 0.2989791 0.1925862 0.2989791 0.1925862 0.2989791 0.1925862 0.2989791 0.1925862 0.2989791 0.1711301 0.4113126 0.1665484 0.4129869 0.1598438 0.4041343 0.1598438 0.4041343 0.1665484 0.4129869 0.1630418 0.4160805 0.1630418 0.4160805 0.161144 0.4201226 0.1493077 0.4180455 0.161144 0.4201226 0.161144 0.4244977 0.1493077 0.4265748 0.161144 0.4244977 0.1630418 0.4285398 0.1530075 0.4344549 0.1530075 0.4344549 0.1630418 0.4285398 0.1665485 0.4316334 0.1665485 0.4316334 0.1711301 0.4333077 0.1687757 0.44375 0.1711301 0.4333077 0.1760893 0.4333077 0.1784437 0.44375 0.1784437 0.44375 0.1760893 0.4333077 0.1806709 0.4316334 0.1873757 0.440486 0.1806709 0.4316334 0.1841776 0.4285398 0.194212 0.4344549 0.1841776 0.4285398 0.1860754 0.4244977 0.1860754 0.4244977 0.1860754 0.4201226 0.1979117 0.4180455 0.1979117 0.4180455 0.1860754 0.4201226 0.1841776 0.4160805 0.194212 0.4101654 0.1841776 0.4160805 0.1806709 0.4129869 0.1955023 0.5333806 0.178671 0.5313597 0.1798582 0.5291585 0.1806709 0.4129869 0.1760893 0.4113126 0.1784437 0.4008703 0.1760893 0.4113126 0.1711301 0.4113126 0.1687757 0.4008703 0.04682058 0.4289953 0.05271315 0.4311486 0.05966383 0.4459528 0.05722308 0.4351274 0.05966383 0.4403259 0.05966383 0.4459528 0.05966383 0.4459528 0.05722308 0.4511514 0.04044252 0.4572834 0.05271315 0.4551302 0.04682058 0.4572834 0.04044252 0.4572834 0.04044252 0.4572834 0.03455001 0.4551302 0.03004002 0.4511514 0.03004002 0.4511514 0.02759927 0.4459528 0.02759927 0.440326 0.02759927 0.440326 0.03004002 0.4351274 0.03455001 0.4311486 0.03455001 0.4311486 0.04044252 0.4289953 0.04682058 0.4289953 0.05271315 0.4311486 0.05722308 0.4351274 0.05966383 0.4459528 0.05722308 0.4511514 0.05271315 0.4551302 0.04044252 0.4572834 0.04044252 0.4572834 0.03004002 0.4511514 0.02759927 0.440326 0.02759927 0.440326 0.03455001 0.4311486 0.04682058 0.4289953 0.04682058 0.4289953 0.05966383 0.4459528 0.02759927 0.440326 0.214668 0.531826 0.2138974 0.5349196 0.1969618 0.5331372 0.213924 0.5567077 0.2134744 0.5598503 0.1964253 0.5594298 0.1948856 0.5365009 0.194669 0.5405552 0.1775993 0.5405871 0.2134803 0.5433368 0.1964253 0.5439627 0.1964253 0.5383358 0.2134744 0.5639091 0.213924 0.5682662 0.1970036 0.5702535 0.1955023 0.5489483 0.178671 0.5513815 0.1778778 0.5462086 0.214668 0.5504725 0.1979529 0.5531401 0.1969618 0.5491612 0.2147547 0.5549599 0.213924 0.5567077 0.1970036 0.5553881 0.1955023 0.5333806 0.1948856 0.5365009 0.1778778 0.5353729 0.2134803 0.5389617 0.1964253 0.5383358 0.1969618 0.5331372 0.2134744 0.5598503 0.2134744 0.5639091 0.1964253 0.5646498 0.1948856 0.5449262 0.1778778 0.5462086 0.1775993 0.5405871 0.2138974 0.5473789 0.1969618 0.5491612 0.1964253 0.5439627 0.2147547 0.5722582 0.1980719 0.5753877 0.1970036 0.5702535 0.1955023 0.5489483 0.1964253 0.5520094 0.1798582 0.5553184</float_array>
          <technique_common>
            <accessor source="#Circle-mesh-map-0-array" count="324" stride="2">
              <param name="S" type="float"/>
              <param name="T" type="float"/>
            </accessor>
          </technique_common>
        </source>
        <vertices id="Circle-mesh-vertices">
          <input semantic="POSITION" source="#Circle-mesh-positions"/>
        </vertices>
        <polylist count="108">
          <input semantic="VERTEX" source="#Circle-mesh-vertices" offset="0"/>
          <input semantic="NORMAL" source="#Circle-mesh-normals" offset="1"/>
          <input semantic="TEXCOORD" source="#Circle-mesh-map-0" offset="2" set="0"/>
          <vcount>3 3 3 3 3 3 3 3 3 3 3 3 3 3 3 3 3 3 3 3 3 3 3 3 3 3 3 3 3 3 3 3 3 3 3 3 3 3 3 3 3 3 3 3 3 3 3 3 3 3 3 3 3 3 3 3 3 3 3 3 3 3 3 3 3 3 3 3 3 3 3 3 3 3 3 3 3 3 3 3 3 3 3 3 3 3 3 3 3 3 3 3 3 3 3 3 3 3 3 3 3 3 3 3 3 3 3 3 </vcount>
          <p>0 0 0 1 0 1 2 0 2 2 1 3 1 1 4 3 1 5 3 2 6 1 2 7 4 2 8 4 3 9 1 3 10 5 3 11 5 4 12 1 4 13 6 4 14 6 5 15 1 5 16 7 5 17 7 6 18 1 6 19 8 6 20 8 7 21 1 7 22 9 7 23 9 8 24 1 8 25 10 8 26 10 9 27 1 9 28 11 9 29 11 10 30 1 10 31 12 10 32 12 11 33 1 11 34 13 11 35 13 12 36 1 12 37 14 12 38 14 13 39 1 13 40 15 13 41 15 14 42 1 14 43 16 14 44 16 15 45 1 15 46 0 15 47 8 16 48 12 16 49 16 16 50 18 17 51 19 17 52 17 17 53 19 18 54 22 18 55 21 18 56 22 19 57 23 19 58 21 19 59 24 20 60 25 20 61 23 20 62 26 21 63 27 21 64 25 21 65 27 22 66 30 22 67 29 22 68 30 23 69 31 23 70 29 23 71 32 24 72 33 24 73 31 24 74 33 25 75 36 25 76 35 25 77 35 26 78 38 26 79 37 26 80 37 27 81 40 27 82 39 27 83 40 28 84 41 28 85 39 28 86 41 29 87 44 29 88 43 29 89 43 30 90 46 30 91 45 30 92 38 31 93 60 31 94 40 31 95 46 32 96 47 32 97 45 32 98 48 33 99 17 33 100 47 33 101 59 34 102 55 34 103 63 34 104 18 35 105 64 35 106 50 35 107 26 36 108 52 36 109 53 36 110 36 37 111 57 37 112 58 37 113 44 38 114 63 38 115 46 38 116 22 39 117 49 39 118 51 39 119 30 40 120 56 40 121 32 40 122 40 41 123 61 41 124 42 41 125 28 42 126 53 42 127 54 42 128 38 43 129 58 43 130 59 43 131 46 44 132 64 44 133 48 44 134 24 45 135 51 45 136 52 45 137 32 46 138 57 46 139 34 46 140 42 47 141 62 47 142 44 47 143 18 48 144 49 48 145 20 48 146 30 49 147 54 49 148 55 49 149 16 16 150 0 16 151 2 16 152 2 16 153 3 16 154 4 16 155 4 50 156 5 50 157 6 50 158 6 16 159 7 16 160 4 16 161 8 16 162 9 16 163 10 16 164 10 51 165 11 51 166 8 51 167 12 52 168 13 52 169 14 52 170 14 53 171 15 53 172 16 53 173 16 16 174 2 16 175 4 16 176 4 54 177 7 54 178 8 54 179 8 55 180 11 55 181 12 55 182 12 56 183 14 56 184 16 56 185 16 57 186 4 57 187 8 57 188 18 58 189 20 58 190 19 58 191 19 59 192 20 59 193 22 59 194 22 60 195 24 60 196 23 60 197 24 61 198 26 61 199 25 61 200 26 62 201 28 62 202 27 62 203 27 63 204 28 63 205 30 63 206 30 64 207 32 64 208 31 64 209 32 65 210 34 65 211 33 65 212 33 66 213 34 66 214 36 66 215 35 67 216 36 67 217 38 67 218 37 68 219 38 68 220 40 68 221 40 69 222 42 69 223 41 69 224 41 70 225 42 70 226 44 70 227 43 71 228 44 71 229 46 71 230 38 72 231 59 72 232 60 72 233 46 73 234 48 73 235 47 73 236 48 74 237 18 74 238 17 74 239 51 34 240 49 34 241 63 34 242 50 34 243 64 34 244 63 34 245 63 75 246 62 75 247 59 75 248 61 34 249 60 34 250 59 34 251 59 34 252 58 34 253 57 34 254 57 34 255 56 34 256 55 34 257 55 34 258 54 34 259 53 34 260 53 34 261 52 34 262 51 34 263 49 34 264 50 34 265 63 34 266 62 34 267 61 34 268 59 34 269 59 34 270 57 34 271 55 34 272 55 34 273 53 34 274 51 34 275 51 34 276 63 34 277 55 34 278 18 76 279 48 76 280 64 76 281 26 77 282 24 77 283 52 77 284 36 78 285 34 78 286 57 78 287 44 79 288 62 79 289 63 79 290 22 80 291 20 80 292 49 80 293 30 81 294 55 81 295 56 81 296 40 82 297 60 82 298 61 82 299 28 83 300 26 83 301 53 83 302 38 84 303 36 84 304 58 84 305 46 85 306 63 85 307 64 85 308 24 86 309 22 86 310 51 86 311 32 87 312 56 87 313 57 87 314 42 88 315 61 88 316 62 88 317 18 89 318 50 89 319 49 89 320 30 90 321 28 90 322 54 90 323</p>
        </polylist>
      </mesh>
    </geometry>
  </library_geometries>
  <library_controllers/>
  <library_visual_scenes>
    <visual_scene id="Scene" name="Scene">
      <node id="Camera" name="Camera" type="NODE">
        <matrix sid="transform">0.6858805 -0.3173701 0.6548619 7.481132 0.7276338 0.3124686 -0.6106656 -6.50764 -0.01081678 0.8953432 0.4452454 5.343665 0 0 0 1</matrix>
        <instance_camera url="#Camera-camera"/>
      </node>
      <node id="Lamp" name="Lamp" type="NODE">
        <matrix sid="transform">-0.2908646 -0.7711008 0.5663932 4.076245 0.9551712 -0.1998834 0.2183912 1.005454 -0.05518906 0.6045247 0.7946723 5.903862 0 0 0 1</matrix>
        <instance_light url="#Lamp-light"/>
      </node>
      <node id="Circle" name="Circle" type="NODE">
        <matrix sid="transform">0.3989818 0 0 0 0 0.3989818 5.36067e-8 0 0 -5.36067e-8 0.3989818 0 0 0 0 1</matrix>
        <instance_geometry url="#Circle-mesh" name="Circle"/>
      </node>
    </visual_scene>
  </library_visual_scenes>
  <scene>
    <instance_visual_scene url="#Scene"/>
  </scene>
</COLLADA>