<?xml version="1.0" encoding="utf-8"?>
<COLLADA xmlns="http://www.collada.org/2005/11/COLLADASchema" version="1.4.1">
  <asset>
    <contributor>
      <author>Blender User</author>
      <authoring_tool>Blender 2.77.0 commit date:2016-03-06, commit time:06:25, hash:5fd0c1e</authoring_tool>
    </contributor>
    <created>2016-05-11T16:33:22</created>
    <modified>2016-05-11T16:33:22</modified>
    <unit name="meter" meter="1"/>
    <up_axis>Z_UP</up_axis>
  </asset>
  <library_images/>
  <library_geometries>
    <geometry id="Circle-mesh" name="Circle">
      <mesh>
        <source id="Circle-mesh-positions">
          <float_array id="Circle-mesh-positions-array" count="168">-0.1975227 -0.6611191 -0.1977849 -0.1975227 -0.5154053 0.1330894 -0.1975227 0.1900336 -0.1980546 -0.1975227 0.1900334 0.1969905 0.1975225 -0.6611191 -0.1977849 0.1975225 -0.5154052 0.1330893 0.1975225 0.1900336 -0.1980546 0.1975225 0.1900333 0.1969906 -0.1975227 -1.235651 0.4306101 -0.1975227 -0.9442235 0.6973136 0.1975225 -1.235651 0.4306102 0.1975225 -0.9442237 0.6973136 0.1969814 -0.6996552 0.9526482 0.1974069 -0.4309918 1.24227 -0.1980636 -0.6993532 0.9529482 -0.197638 -0.4306896 1.24257 0.1964941 -0.2069967 -0.1849585 0.1967942 0.1880394 -0.1876245 0.1970821 -0.1383373 0.5200325 0.1974449 0.1935124 0.6635103 -0.198551 -0.2066946 -0.1846586 -0.1982509 0.1883415 -0.1873245 -0.1979629 -0.1380352 0.5203327 -0.1976001 0.1938146 0.6638104 0.2371541 0.1157113 0.1210444 -0.242807 0.1158942 0.1212274 0.2371474 0.0621736 0.157079 -0.2428135 0.06235659 0.1572619 0.2371281 -0.001078486 0.1698825 -0.242833 -8.95611e-4 0.1700655 0.2370995 -0.06441569 0.157506 -0.2428614 -0.06423276 0.157689 0.2370654 -0.1181952 0.1218335 -0.2428957 -0.1180124 0.1220165 0.2370309 -0.1542297 0.06829571 -0.2429299 -0.1540468 0.06847876 0.2370022 -0.1670333 0.005043506 -0.2429589 -0.1668505 0.005226552 0.2369828 -0.1546568 -0.05829364 -0.2429783 -0.1544739 -0.05811053 0.2369759 -0.1189843 -0.1120731 -0.2429851 -0.1188014 -0.1118901 0.2369824 -0.06544667 -0.1481077 -0.2429786 -0.06526374 -0.1479246 0.2370018 -0.002194523 -0.1609113 -0.2429594 -0.002011597 -0.1607283 0.2370305 0.06114262 -0.1485347 -0.2429306 0.06132555 -0.1483517 0.2370645 0.1149222 -0.1128621 -0.2428965 0.1151051 -0.1126791 0.2370988 0.1509568 -0.05932438 -0.2428623 0.1511397 -0.05914151 0.2371278 0.1637604 0.003927707 -0.2428334 0.1639433 0.004110693 0.2371472 0.1513839 0.06726491 -0.2428139 0.1515667 0.06744784</float_array>
          <technique_common>
            <accessor source="#Circle-mesh-positions-array" count="56" stride="3">
              <param name="X" type="float"/>
              <param name="Y" type="float"/>
              <param name="Z" type="float"/>
            </accessor>
          </technique_common>
        </source>
        <source id="Circle-mesh-normals">
          <float_array id="Circle-mesh-normals-array" count="312">-1 0 0 0 1 3.81932e-7 1 0 0 0 -0.9151834 0.403038 1.77266e-7 -3.16807e-4 -1 0 -0.09021431 0.9959224 -1 0 0 1 0 0 -2.96975e-7 -0.6751214 0.7377068 -1.32903e-7 -0.7380292 -0.6747689 2.74485e-7 0.7961568 0.6050904 0.001068532 0.6104481 0.7920556 -0.001076996 -0.679733 -0.7334589 4.3974e-5 0.7331351 -0.6800831 -0.9999995 7.64834e-4 7.59644e-4 0.9999995 -7.64813e-4 -7.59716e-4 6.87559e-4 0.9952908 -0.09693241 -7.60064e-4 -0.999979 0.006430745 -3.93958e-4 0.3968537 -0.9178819 -0.9999995 7.64778e-4 7.59692e-4 7.64342e-4 0.006747603 0.9999769 0.9999995 -7.64781e-4 -7.59717e-4 5.29044e-4 0.5583717 0.8295908 4.4915e-4 0.1983962 0.9801218 3.01062e-4 -0.1917796 0.981438 1.07041e-4 -0.5527628 0.8333387 -1.03057e-4 -0.8295913 0.5583711 -2.97711e-4 -0.9801216 0.1983978 -4.47001e-4 -0.9814382 -0.1917784 -5.28458e-4 -0.8333387 -0.5527626 -5.2922e-4 -0.558372 -0.8295906 -4.49264e-4 -0.1983974 -0.9801216 -3.01036e-4 0.1917801 -0.9814379 -1.0701e-4 0.5527631 -0.8333386 1.03381e-4 0.8295909 -0.5583719 2.97919e-4 0.9801214 -0.1983984 -1 3.80729e-4 3.81612e-4 4.46927e-4 0.9814379 0.1917799 5.28093e-4 0.8333388 0.5527625 1 -3.80748e-4 -3.81567e-4 -1 0 0 3.01761e-7 1 6.68381e-7 1 0 0 1.95623e-7 -0.9151835 0.4030376 0 -3.16877e-4 -1 -2.1301e-7 -0.09021413 0.9959224 -1 0 0 1 0 0 -3.81932e-7 -0.675121 0.7377071 0 -0.7380291 -0.6747689 0 0.796157 0.6050903 0.001068413 0.6104482 0.7920555 -0.001077115 -0.679733 -0.7334589 4.39222e-5 0.7331352 -0.680083 -0.9999995 7.64786e-4 7.59613e-4 0.9999995 -7.64834e-4 -7.59747e-4 6.87768e-4 0.9952908 -0.09693229 -7.59762e-4 -0.999979 0.006430804 -3.93534e-4 0.3968533 -0.917882 -0.9999995 7.64887e-4 7.597e-4 7.6472e-4 0.006747901 0.9999769 0.9999995 -7.64877e-4 -7.59709e-4 5.29099e-4 0.5583719 0.8295906 4.4933e-4 0.1983976 0.9801215 3.01157e-4 -0.1917805 0.9814379 1.07271e-4 -0.5527616 0.8333395 -1.03285e-4 -0.8295923 0.5583698 -2.9793e-4 -0.9801213 0.1983994 -4.47266e-4 -0.9814376 -0.1917814 -5.28513e-4 -0.8333386 -0.5527628 -5.29194e-4 -0.5583726 -0.8295902 -4.4933e-4 -0.1983987 -0.9801214 -3.01014e-4 0.1917801 -0.9814379 -1.07067e-4 0.5527634 -0.8333383 1.03252e-4 0.8295904 -0.5583726 2.97804e-4 0.9801214 -0.1983985 -0.9999998 3.89175e-4 3.96881e-4 -0.9999999 3.81661e-4 3.81398e-4 -0.9999999 3.86835e-4 3.79422e-4 -0.9999999 3.81867e-4 3.79252e-4 -1 3.78656e-4 3.83866e-4 -1 3.90342e-4 3.83507e-4 -0.9999999 3.79349e-4 3.81038e-4 -1 3.69598e-4 4.04817e-4 -0.9999999 3.82903e-4 3.81983e-4 -0.9999999 3.80537e-4 3.81422e-4 -1 3.78072e-4 3.78245e-4 -1 3.77146e-4 3.85001e-4 -1 3.80767e-4 3.80351e-4 4.47097e-4 0.9814376 0.1917816 5.28238e-4 0.8333393 0.5527614 1 -3.83331e-4 -3.82341e-4 0.9999999 -3.82482e-4 -3.82489e-4 1 -3.72812e-4 -3.92338e-4 1 -3.90691e-4 -3.75229e-4 1 -3.78657e-4 -3.79006e-4 1 -3.85766e-4 -3.87495e-4 0.9999999 -3.79349e-4 -3.81854e-4 1 -3.79824e-4 -3.80817e-4 0.9999999 -3.78628e-4 -3.7639e-4 0.9999999 -3.80682e-4 -3.81637e-4 0.9999999 -3.78405e-4 -3.76389e-4 1 -3.85766e-4 -3.80795e-4 0.9999999 -3.8102e-4 -3.81567e-4</float_array>
          <technique_common>
            <accessor source="#Circle-mesh-normals-array" count="104" stride="3">
              <param name="X" type="float"/>
              <param name="Y" type="float"/>
              <param name="Z" type="float"/>
            </accessor>
          </technique_common>
        </source>
        <source id="Circle-mesh-map-0">
          <float_array id="Circle-mesh-map-0-array" count="624">0.1954802 0.4128917 0.1608939 0.4025258 0.2252789 0.4128917 0.1767471 0.5339462 0.176509 0.5334144 0.1658545 0.5315021 0.1907202 0.404777 0.1715484 0.4044381 0.1745319 0.404505 0.2026855 0.4690684 0.2111963 0.4768573 0.2026855 0.4768573 0.1530814 0.5884633 0.1981136 0.5872053 0.2174664 0.5988292 0.1667194 0.5904425 0.1876677 0.5988292 0.1829077 0.5907145 0.2215315 0.439557 0.2231547 0.4253477 0.2252789 0.4129048 0.2112094 0.447808 0.2211965 0.4305337 0.2112094 0.4768573 0.2207764 0.425501 0.2231547 0.4253477 0.2211965 0.4305337 0.1934672 0.5487852 0.181522 0.6002948 0.191509 0.5539712 0.03642356 0.4410291 0.05049306 0.4061258 0.04599058 0.418722 0.04599058 0.418722 0.04674565 0.432778 0.05049306 0.4061258 0.1934672 0.5487852 0.181522 0.6002948 0.191509 0.5539712 0.2207764 0.425501 0.2231547 0.4253477 0.2211965 0.4305337 0.2112094 0.447808 0.2211965 0.4305337 0.2112094 0.4768573 0.2215315 0.439557 0.2231547 0.4253477 0.2252789 0.4129048 0.1667194 0.5904425 0.1876677 0.5988292 0.1829077 0.5907145 0.2174664 0.5988292 0.1637359 0.5903756 0.1981136 0.5872053 0.2111963 0.4690684 0.2026855 0.4768573 0.2026855 0.4690684 0.1907202 0.404777 0.1715484 0.4044381 0.1745319 0.404505 0.1745319 0.404505 0.1608939 0.4025258 0.1717864 0.4049699 0.1954802 0.4128917 0.1608939 0.4025258 0.2252789 0.4128917 0.06594753 0.4384597 0.06243366 0.4707291 0.06243366 0.4384597 0.03270298 0.4384597 0.0353924 0.4707291 0.03270298 0.4707291 0.0353924 0.4707291 0.03890627 0.4384598 0.03890627 0.4707291 0.03890627 0.4384598 0.0427097 0.4707291 0.03890627 0.4707291 0.0427097 0.4384597 0.04622358 0.4707291 0.0427097 0.4707291 0.04622358 0.4707291 0.048913 0.4384597 0.048913 0.4707291 0.07595425 0.4384597 0.07946819 0.4707291 0.07595425 0.4707291 0.07946819 0.4707291 0.08327162 0.4384597 0.08327162 0.4707291 0.08327162 0.4384597 0.08678549 0.4707291 0.08327162 0.4707291 0.06243366 0.4384597 0.05891972 0.4707291 0.05891972 0.4384597 0.05891972 0.4707291 0.05511635 0.4384597 0.05891972 0.4384597 0.05511635 0.4707291 0.05160242 0.4384597 0.05511635 0.4384597 0.05160242 0.4384597 0.048913 0.4707291 0.048913 0.4384597 0.07595425 0.4707291 0.07326483 0.4384597 0.07595425 0.4384597 0.06821966 0.7734237 0.09668481 0.8220227 0.02561849 0.8058965 0.07326483 0.4384597 0.06975096 0.4707291 0.06975096 0.4384597 0.06975096 0.4707291 0.06594753 0.4384597 0.06975096 0.4384597 0.08165323 0.8493362 0.0276373 0.837079 0.09239763 0.7877152 0.1954802 0.4128917 0.1717864 0.4049699 0.1608939 0.4025258 0.1767471 0.5339462 0.1794925 0.5334814 0.176509 0.5334144 0.1907202 0.404777 0.2059261 0.4012678 0.1715484 0.4044381 0.2026855 0.4690684 0.2111963 0.4690684 0.2111963 0.4768573 0.1530814 0.5884633 0.1637359 0.5903756 0.1981136 0.5872053 0.1667194 0.5904425 0.1639739 0.5909073 0.1876677 0.5988292 0.2215315 0.439557 0.2247712 0.4569587 0.2231547 0.4253477 0.2112094 0.447808 0.2207764 0.425501 0.2211965 0.4305337 0.2207764 0.425501 0.2252789 0.4129048 0.2231547 0.4253477 0.1934672 0.5487852 0.1950836 0.5803962 0.181522 0.6002948 0.03642356 0.4410291 0.04674565 0.432778 0.05049306 0.4061258 0.04599058 0.418722 0.03642356 0.4410291 0.04674565 0.432778 0.1934672 0.5487852 0.1950836 0.5803962 0.181522 0.6002948 0.2207764 0.425501 0.2252789 0.4129048 0.2231547 0.4253477 0.2112094 0.447808 0.2207764 0.425501 0.2211965 0.4305337 0.2215315 0.439557 0.2247712 0.4569587 0.2231547 0.4253477 0.1667194 0.5904425 0.1639739 0.5909073 0.1876677 0.5988292 0.2174664 0.5988292 0.1530814 0.5884633 0.1637359 0.5903756 0.2111963 0.4690684 0.2111963 0.4768573 0.2026855 0.4768573 0.1907202 0.404777 0.2059261 0.4012678 0.1715484 0.4044381 0.1745319 0.404505 0.1715484 0.4044381 0.1608939 0.4025258 0.1954802 0.4128917 0.1717864 0.4049699 0.1608939 0.4025258 0.06594753 0.4384597 0.06594753 0.4707291 0.06243366 0.4707291 0.03270298 0.4384597 0.0353924 0.4384597 0.0353924 0.4707291 0.0353924 0.4707291 0.0353924 0.4384597 0.03890627 0.4384598 0.03890627 0.4384598 0.0427097 0.4384597 0.0427097 0.4707291 0.0427097 0.4384597 0.04622358 0.4384597 0.04622358 0.4707291 0.04622358 0.4707291 0.04622358 0.4384597 0.048913 0.4384597 0.07595425 0.4384597 0.07946819 0.4384597 0.07946819 0.4707291 0.07946819 0.4707291 0.07946819 0.4384597 0.08327162 0.4384597 0.08327162 0.4384597 0.08678549 0.4384597 0.08678549 0.4707291 0.06243366 0.4384597 0.06243366 0.4707291 0.05891972 0.4707291 0.05891972 0.4707291 0.05511635 0.4707291 0.05511635 0.4384597 0.05511635 0.4707291 0.05160242 0.4707291 0.05160242 0.4384597 0.05160242 0.4384597 0.05160242 0.4707291 0.048913 0.4707291 0.07595425 0.4707291 0.07326483 0.4707291 0.07326483 0.4384597 0.05408364 0.8544955 0.04102373 0.8483243 0.03102809 0.8369213 0.03102809 0.8369213 0.02561849 0.8220227 0.05408364 0.8544955 0.02561849 0.8058965 0.03102809 0.7909979 0.04102373 0.7795949 0.04102373 0.7795949 0.0540837 0.7734237 0.06821966 0.7734237 0.06821966 0.7734237 0.08127957 0.7795949 0.09127521 0.7909979 0.09127521 0.7909979 0.09668481 0.8058965 0.09668481 0.8220227 0.09668481 0.8220227 0.09127515 0.8369213 0.05408364 0.8544955 0.08127957 0.8483244 0.0682196 0.8544955 0.05408364 0.8544955 0.05408364 0.8544955 0.02561849 0.8220227 0.02561849 0.8058965 0.02561849 0.8058965 0.04102373 0.7795949 0.06821966 0.7734237 0.06821966 0.7734237 0.09127521 0.7909979 0.09668481 0.8220227 0.09127515 0.8369213 0.08127957 0.8483244 0.05408364 0.8544955 0.05408364 0.8544955 0.02561849 0.8058965 0.09668481 0.8220227 0.07326483 0.4384597 0.07326483 0.4707291 0.06975096 0.4707291 0.06975096 0.4707291 0.06594753 0.4707291 0.06594753 0.4384597 0.03838169 0.775458 0.05241996 0.7688246 0.06761491 0.7688246 0.06761491 0.7688246 0.08165317 0.775458 0.03838169 0.775458 0.09239763 0.7877152 0.09821248 0.80373 0.09821248 0.8210642 0.09821248 0.8210642 0.09239763 0.8370789 0.09239763 0.7877152 0.08165323 0.8493362 0.06761491 0.8559696 0.05242002 0.8559697 0.05242002 0.8559697 0.03838175 0.8493362 0.08165323 0.8493362 0.0276373 0.837079 0.02182245 0.8210642 0.03838169 0.775458 0.02182245 0.80373 0.02763724 0.7877153 0.03838169 0.775458 0.03838169 0.775458 0.08165317 0.775458 0.09239763 0.7877152 0.09239763 0.7877152 0.09239763 0.8370789 0.08165323 0.8493362 0.08165323 0.8493362 0.03838175 0.8493362 0.0276373 0.837079 0.02182245 0.8210642 0.02182245 0.80373 0.03838169 0.775458 0.03838169 0.775458 0.09239763 0.7877152 0.0276373 0.837079</float_array>
          <technique_common>
            <accessor source="#Circle-mesh-map-0-array" count="312" stride="2">
              <param name="S" type="float"/>
              <param name="T" type="float"/>
            </accessor>
          </technique_common>
        </source>
        <vertices id="Circle-mesh-vertices">
          <input semantic="POSITION" source="#Circle-mesh-positions"/>
        </vertices>
        <polylist count="104">
          <input semantic="VERTEX" source="#Circle-mesh-vertices" offset="0"/>
          <input semantic="NORMAL" source="#Circle-mesh-normals" offset="1"/>
          <input semantic="TEXCOORD" source="#Circle-mesh-map-0" offset="2" set="0"/>
          <vcount>3 3 3 3 3 3 3 3 3 3 3 3 3 3 3 3 3 3 3 3 3 3 3 3 3 3 3 3 3 3 3 3 3 3 3 3 3 3 3 3 3 3 3 3 3 3 3 3 3 3 3 3 3 3 3 3 3 3 3 3 3 3 3 3 3 3 3 3 3 3 3 3 3 3 3 3 3 3 3 3 3 3 3 3 3 3 3 3 3 3 3 3 3 3 3 3 3 3 3 3 3 3 3 3 </vcount>
          <p>1 0 0 2 0 1 0 0 2 3 1 3 6 1 4 2 1 5 5 2 6 6 2 7 7 2 8 5 3 9 0 3 10 4 3 11 2 4 12 4 4 13 0 4 14 7 5 15 1 5 16 5 5 17 1 6 18 8 6 19 9 6 20 5 7 21 10 7 22 4 7 23 11 8 24 8 8 25 10 8 26 8 9 27 4 9 28 10 9 29 5 10 30 9 10 31 11 10 32 12 11 33 22 11 34 14 11 35 15 12 36 19 12 37 13 12 38 12 13 39 15 13 40 13 13 41 18 14 42 13 14 43 19 14 44 22 15 45 15 15 46 14 15 47 16 16 48 22 16 49 18 16 50 23 17 51 17 17 52 19 17 53 22 18 54 19 18 55 18 18 56 18 19 57 17 19 58 16 19 59 16 20 60 21 20 61 20 20 62 22 21 63 21 21 64 23 21 65 24 22 66 27 22 67 26 22 68 27 23 69 28 23 70 26 23 71 28 24 72 31 24 73 30 24 74 31 25 75 32 25 76 30 25 77 33 26 78 34 26 79 32 26 80 34 27 81 37 27 82 36 27 83 37 28 84 38 28 85 36 28 86 38 29 87 41 29 88 40 29 89 41 30 90 42 30 91 40 30 92 42 31 93 45 31 94 44 31 95 45 32 96 46 32 97 44 32 98 47 33 99 48 33 100 46 33 101 48 34 102 51 34 103 50 34 104 51 35 105 52 35 106 50 35 107 45 36 108 37 36 109 53 36 110 52 37 111 55 37 112 54 37 113 55 38 114 24 38 115 54 38 116 38 39 117 46 39 118 30 39 119 1 40 120 3 40 121 2 40 122 3 41 123 7 41 124 6 41 125 5 42 126 4 42 127 6 42 128 5 43 129 1 43 130 0 43 131 2 44 132 6 44 133 4 44 134 7 45 135 3 45 136 1 45 137 1 46 138 0 46 139 8 46 140 5 47 141 11 47 142 10 47 143 11 48 144 9 48 145 8 48 146 8 49 147 0 49 148 4 49 149 5 50 150 1 50 151 9 50 152 12 51 153 18 51 154 22 51 155 15 52 156 23 52 157 19 52 158 12 53 159 14 53 160 15 53 161 18 54 162 12 54 163 13 54 164 22 55 165 23 55 166 15 55 167 16 56 168 20 56 169 22 56 170 23 57 171 21 57 172 17 57 173 22 58 174 23 58 175 19 58 176 18 59 177 19 59 178 17 59 179 16 60 180 17 60 181 21 60 182 22 61 183 20 61 184 21 61 185 24 62 186 25 62 187 27 62 188 27 63 189 29 63 190 28 63 191 28 64 192 29 64 193 31 64 194 31 65 195 33 65 196 32 65 197 33 66 198 35 66 199 34 66 200 34 67 201 35 67 202 37 67 203 37 68 204 39 68 205 38 68 206 38 69 207 39 69 208 41 69 209 41 70 210 43 70 211 42 70 212 42 71 213 43 71 214 45 71 215 45 72 216 47 72 217 46 72 218 47 73 219 49 73 220 48 73 221 48 74 222 49 74 223 51 74 224 51 75 225 53 75 226 52 75 227 29 76 228 27 76 229 25 76 230 25 77 231 55 77 232 29 77 233 53 78 234 51 78 235 49 78 236 49 79 237 47 79 238 45 79 239 45 80 240 43 80 241 41 80 242 41 81 243 39 81 244 37 81 245 37 82 246 35 82 247 29 82 248 33 83 249 31 83 250 29 83 251 29 84 252 55 84 253 53 84 254 53 85 255 49 85 256 45 85 257 45 86 258 41 86 259 37 86 260 35 87 261 33 87 262 29 87 263 29 88 264 53 88 265 37 88 266 52 89 267 53 89 268 55 89 269 55 90 270 25 90 271 24 90 272 54 91 273 24 91 274 26 91 275 26 92 276 28 92 277 54 92 278 30 93 279 32 93 280 34 93 281 34 94 282 36 94 283 30 94 284 38 95 285 40 95 286 42 95 287 42 96 288 44 96 289 38 96 290 46 97 291 48 97 292 54 97 293 50 98 294 52 98 295 54 98 296 54 99 297 28 99 298 30 99 299 30 100 300 36 100 301 38 100 302 38 101 303 44 101 304 46 101 305 48 102 306 50 102 307 54 102 308 54 103 309 30 103 310 46 103 311</p>
        </polylist>
      </mesh>
    </geometry>
  </library_geometries>
  <library_controllers/>
  <library_visual_scenes>
    <visual_scene id="Scene" name="Scene">
      <node id="Circle" name="Circle" type="NODE">
        <matrix sid="transform">0.3989818 -1.52015e-4 -1.52115e-4 0 2.15051e-4 0.2830729 0.2811693 4.63785e-4 7.96059e-7 -0.2811693 0.2830729 0.2306734 0 0 0 1</matrix>
        <instance_geometry url="#Circle-mesh" name="Circle"/>
      </node>
    </visual_scene>
  </library_visual_scenes>
  <scene>
    <instance_visual_scene url="#Scene"/>
  </scene>
</COLLADA>