<?xml version="1.0" encoding="utf-8"?>
<COLLADA xmlns="http://www.collada.org/2005/11/COLLADASchema" version="1.4.1">
  <asset>
    <contributor>
      <author>Blender User</author>
      <authoring_tool>Blender 2.78.0 commit date:2016-10-24, commit time:12:20, hash:e8299c8</authoring_tool>
    </contributor>
    <created>2016-12-06T21:05:01</created>
    <modified>2016-12-06T21:05:01</modified>
    <unit name="meter" meter="1"/>
    <up_axis>Z_UP</up_axis>
  </asset>
  <library_cameras>
    <camera id="Camera-camera" name="Camera">
      <optics>
        <technique_common>
          <perspective>
            <xfov sid="xfov">49.13434</xfov>
            <aspect_ratio>1.777778</aspect_ratio>
            <znear sid="znear">0.1</znear>
            <zfar sid="zfar">100</zfar>
          </perspective>
        </technique_common>
      </optics>
      <extra>
        <technique profile="blender">
          <YF_dofdist>0</YF_dofdist>
          <shiftx>0</shiftx>
          <shifty>0</shifty>
        </technique>
      </extra>
    </camera>
  </library_cameras>
  <library_lights>
    <light id="Lamp-light" name="Lamp">
      <technique_common>
        <point>
          <color sid="color">1 1 1</color>
          <constant_attenuation>1</constant_attenuation>
          <linear_attenuation>0</linear_attenuation>
          <quadratic_attenuation>0.00111109</quadratic_attenuation>
        </point>
      </technique_common>
      <extra>
        <technique profile="blender">
          <adapt_thresh>0.000999987</adapt_thresh>
          <area_shape>1</area_shape>
          <area_size>0.1</area_size>
          <area_sizey>0.1</area_sizey>
          <area_sizez>1</area_sizez>
          <atm_distance_factor>1</atm_distance_factor>
          <atm_extinction_factor>1</atm_extinction_factor>
          <atm_turbidity>2</atm_turbidity>
          <att1>0</att1>
          <att2>1</att2>
          <backscattered_light>1</backscattered_light>
          <bias>1</bias>
          <blue>1</blue>
          <buffers>1</buffers>
          <bufflag>0</bufflag>
          <bufsize>2880</bufsize>
          <buftype>2</buftype>
          <clipend>30.002</clipend>
          <clipsta>1.000799</clipsta>
          <compressthresh>0.04999995</compressthresh>
          <dist sid="blender_dist">29.99998</dist>
          <energy sid="blender_energy">1</energy>
          <falloff_type>2</falloff_type>
          <filtertype>0</filtertype>
          <flag>0</flag>
          <gamma sid="blender_gamma">1</gamma>
          <green>1</green>
          <halo_intensity sid="blnder_halo_intensity">1</halo_intensity>
          <horizon_brightness>1</horizon_brightness>
          <mode>8192</mode>
          <ray_samp>1</ray_samp>
          <ray_samp_method>1</ray_samp_method>
          <ray_samp_type>0</ray_samp_type>
          <ray_sampy>1</ray_sampy>
          <ray_sampz>1</ray_sampz>
          <red>1</red>
          <samp>3</samp>
          <shadhalostep>0</shadhalostep>
          <shadow_b sid="blender_shadow_b">0</shadow_b>
          <shadow_g sid="blender_shadow_g">0</shadow_g>
          <shadow_r sid="blender_shadow_r">0</shadow_r>
          <sky_colorspace>0</sky_colorspace>
          <sky_exposure>1</sky_exposure>
          <skyblendfac>1</skyblendfac>
          <skyblendtype>1</skyblendtype>
          <soft>3</soft>
          <spotblend>0.15</spotblend>
          <spotsize>75</spotsize>
          <spread>1</spread>
          <sun_brightness>1</sun_brightness>
          <sun_effect_type>0</sun_effect_type>
          <sun_intensity>1</sun_intensity>
          <sun_size>1</sun_size>
          <type>0</type>
        </technique>
      </extra>
    </light>
  </library_lights>
  <library_images/>
  <library_geometries>
    <geometry id="Circle-mesh" name="Circle">
      <mesh>
        <source id="Circle-mesh-positions">
          <float_array id="Circle-mesh-positions-array" count="420">0.03188991 -0.02957618 0 1.03189 -0.02957618 0 0.9557694 0.3531073 0 0.7389968 0.6775305 0 0.4145733 0.8943032 1.19209e-7 0.03189003 0.9704238 1.78814e-7 -0.3507935 0.8943032 2.38419e-7 -0.6752167 0.6775305 2.38419e-7 -0.8919895 0.3531073 2.38419e-7 -0.96811 -0.029576 1.78814e-7 -0.8919896 -0.4122593 1.19209e-7 -0.675217 -0.7366828 0 -0.3507937 -0.9534557 0 0.03188991 -1.029576 0 0.4145735 -0.9534557 -1.19209e-7 0.7389969 -0.7366827 -1.19209e-7 0.9557698 -0.4122592 -1.19209e-7 -0.7843981 -0.2361479 0.8663305 0.6718778 -0.2361482 0.8663305 -0.7843981 -0.3173238 1.025646 0.6718778 -0.317324 1.025646 -0.7843981 -0.2893525 1.202249 0.6718778 -0.2893528 1.20225 -0.784398 -0.1629188 1.328683 0.6718778 -0.162919 1.328683 -0.784398 0.01368451 1.356655 0.6718779 0.01368421 1.356655 -0.784398 0.1730005 1.275479 0.6718778 0.1730002 1.275479 -0.784398 0.2541761 1.116163 0.6718779 0.2541759 1.116163 -0.784398 0.2262047 0.9395598 0.6718779 0.2262044 0.9395598 -0.784398 0.0997709 0.813126 0.6718778 0.09977066 0.813126 -0.784398 -0.07683223 0.7851548 0.6718778 -0.07683247 0.7851548 1.156793 -0.03044998 1.069048 0.2015939 -0.02686935 1.065293 -0.6821734 -0.6517872 1.690211 -0.6821731 0.5980489 0.4403753 0.2015938 -0.02686923 1.065293 -0.6821731 0.5980486 1.690211 -0.6821733 -0.6517871 0.4403751 0.3571282 0.3251025 -0.00834167 0.1765369 0.1338453 0.8761997 0.3578733 0.1930068 -0.008341908 0.1768822 0.07264339 0.8761996 0.2250328 0.3243573 -0.00834167 0.1153352 0.1335 0.8761997 0.225778 0.1922616 -0.008341908 0.1156804 0.0722981 0.8761996 0.3603822 -0.2517173 -0.008341848 0.1780446 -0.1334039 0.8761997 0.3611274 -0.383813 -0.008342146 0.1783898 -0.1946058 0.8761994 0.2282868 -0.2524625 -0.008341848 0.1168428 -0.1337491 0.8761997 0.229032 -0.3845582 -0.008342087 0.117188 -0.194951 0.8761994 -0.1877634 0.3220285 -0.008341729 -0.0759195 0.1324211 0.8761997 -0.1870182 0.1899328 -0.008341968 -0.07557421 0.07121926 0.8761995 -0.319859 0.3212835 -0.00834167 -0.1371213 0.1320759 0.8761997 -0.3191137 0.1891877 -0.008341968 -0.136776 0.07087397 0.8761995 -0.1845095 -0.2547912 -0.008341908 -0.07441186 -0.134828 0.8761996 -0.1837642 -0.3868868 -0.008342146 -0.07406657 -0.1960299 0.8761995 -0.316605 -0.2555363 -0.008341908 -0.1356137 -0.1351733 0.8761996 -0.3158599 -0.387632 -0.008342146 -0.1352685 -0.1963752 0.8761995 -0.1832471 0.1094436 0.4268941 0.2246691 0.1098493 0.426881 -0.1835556 0.1939536 0.4271987 0.2243608 0.1943593 0.4271854 -0.1832453 0.1091393 0.5114046 0.2246708 0.1095448 0.5113914 -0.1835538 0.1936492 0.5117089 0.2243625 0.1940549 0.5116957 -0.1851921 -0.2558119 0.4268942 0.2227241 -0.2554063 0.426881 -0.1855006 -0.1713019 0.4271986 0.2224158 -0.1708964 0.4271854 -0.1851903 -0.2561163 0.5114046 0.2227259 -0.2557107 0.5113914 -0.1854988 -0.1716063 0.5117089 0.2224175 -0.1712008 0.5116958 0.1589009 0.1726464 0.4268942 0.1613273 -0.2352628 0.426881 0.2434082 0.1733735 0.4271987 0.2458346 -0.2345358 0.4271854 0.1585965 0.1726431 0.5114045 0.1610229 -0.235266 0.5113914 0.2431039 0.1733703 0.5117089 0.2455303 -0.234539 0.5116958 -0.2063599 0.172782 0.4268942 -0.2039334 -0.2351272 0.426881 -0.1218525 0.1735091 0.4271986 -0.1194261 -0.2344002 0.4271854 -0.2066643 0.1727786 0.5114046 -0.2042379 -0.2351305 0.5113913 -0.1221568 0.1735058 0.5117089 -0.1197304 -0.2344035 0.5116956 -0.1273059 0.07074266 0.811185 0.1681069 0.07103651 0.8111755 -0.1275293 0.1319448 0.8114054 0.1678836 0.1322386 0.8113959 -0.1273046 0.07052224 0.8723874 0.1681082 0.07081604 0.8723779 -0.127528 0.1317244 0.8726077 0.1678848 0.1320181 0.8725983 -0.1287144 -0.1937753 0.811185 0.1666983 -0.1934815 0.8111755 -0.1289379 -0.1325731 0.8114054 0.166475 -0.1322795 0.8113958 -0.1287131 -0.1939957 0.8723874 0.1666996 -0.193702 0.8723778 -0.1289365 -0.1327936 0.8726078 0.1664763 -0.1324999 0.8725982 -0.07474124 -0.1686791 0.8733275 -0.076384 0.1075039 0.8733364 -0.1319586 -0.1691715 0.8731214 -0.1336014 0.1070115 0.8731303 -0.07453513 -0.168677 0.8161081 -0.07617795 0.1075061 0.8161171 -0.1317526 -0.1691692 0.815902 -0.1333954 0.1070138 0.8159109 0.1725658 -0.168771 0.8733276 0.1709229 0.1074122 0.8733364 0.1153484 -0.1692631 0.8731213 0.1137056 0.1069198 0.8731303 0.1727719 -0.1687688 0.8161081 0.1711291 0.1074144 0.8161172 0.1155545 -0.169261 0.8159019 0.1139116 0.106922 0.8159109</float_array>
          <technique_common>
            <accessor source="#Circle-mesh-positions-array" count="140" stride="3">
              <param name="X" type="float"/>
              <param name="Y" type="float"/>
              <param name="Z" type="float"/>
            </accessor>
          </technique_common>
        </source>
        <source id="Circle-mesh-normals">
          <float_array id="Circle-mesh-normals-array" count="600">1.19209e-7 -1.32042e-7 1 0 0 1 0 0 1 1.32042e-7 -1.19209e-7 1 1.79467e-7 -1.19209e-7 1 0 -1.51591e-7 1 1.51591e-7 0 1 0 -1.79467e-7 1 0 -1.32042e-7 1 0 0 1 0 0 1 1.32042e-7 -1.19209e-7 1 1.79467e-7 -1.19209e-7 1 0 -1.51591e-7 1 1.51591e-7 0 1 1.19209e-7 -1.79467e-7 1 -1.7168e-7 -0.8910057 -0.4539921 -1.5577e-7 -0.9876884 0.1564346 -2.28907e-7 -0.7071071 0.7071066 0 -0.1564354 0.9876882 0 0.4539905 0.8910065 1.7168e-7 0.8910065 0.4539906 2.00293e-7 0.9876882 -0.1564354 0 0.7071068 -0.7071068 1 -3.34855e-7 -1.41311e-7 0 0.1564342 -0.9876885 -1.51835e-7 -0.4539916 -0.891006 -1 4.18569e-7 0 0.4937253 -0.7748347 -0.3947994 0.4954072 -0.8579663 0.1358885 0.496362 -0.6138511 0.61385 0.49623 -0.1358153 0.8575022 0.49506 0.3944537 0.774159 0.4932951 0.7750526 0.3949095 0.4916061 0.8600965 -0.1362268 0.4906429 0.6161453 -0.616145 0.4907763 0.1362989 -0.8605588 0.4919555 -0.3952548 -0.7757278 0 -0.7071067 -0.7071069 0 -0.7071069 0.7071067 0.9795386 0.00552529 0.2011809 0.00559026 -0.9910053 -0.1337064 -0.9922338 -0.005597829 -0.1242611 -0.005515158 0.9776301 0.2102591 0 -1.94774e-6 1 0.9795386 0.005524575 0.2011811 0.00551486 -0.9776303 0.2102586 -0.9922338 -0.005597174 -0.124261 -0.005590319 0.9910053 -0.133706 0 -4.86936e-6 1 0.9922338 0.00559771 -0.1242609 0.005590319 -0.9910053 -0.1337063 -0.9795385 -0.005527257 0.201181 -0.005513966 0.9776303 0.2102588 -6.2158e-7 -3.89548e-6 1 0.9922338 0.005598366 -0.1242611 0.005515396 -0.9776303 0.2102586 -0.9795386 -0.005526006 0.2011812 -0.00559026 0.9910053 -0.1337061 -6.5266e-7 -1.94774e-6 1 -0.9999933 -0.00365138 7.4796e-6 0.9999935 0.003647923 -7.31253e-6 -9.94258e-4 0.9999931 0.003601968 -3.58769e-5 0.003601789 -0.9999935 9.94112e-4 -0.9999931 -0.003601491 3.59081e-5 -0.003601074 0.9999936 -0.9999934 -0.003649592 8.18515e-6 0.9999935 0.0036484 -7.48572e-6 -9.94148e-4 0.9999931 0.003602743 -3.60931e-5 0.003601789 -0.9999936 9.94221e-4 -0.9999931 -0.003601491 3.5632e-5 -0.003600358 0.9999935 -0.008604586 0.999963 7.56315e-6 0.008601903 -0.9999631 -7.82394e-6 0.9999758 0.005948066 0.003601312 0.003601312 5.37884e-5 -0.9999935 -0.9999758 -0.005948007 -0.003601372 -0.003601491 -5.35652e-5 0.9999935 -0.008604764 0.999963 8.60632e-6 0.008601903 -0.9999631 -6.78076e-6 0.9999758 0.005948066 0.003601491 0.003601312 5.37145e-5 -0.9999935 -0.9999758 -0.005947947 -0.003601849 -0.003603219 -5.40043e-5 0.9999935 -0.9999933 -0.003650128 7.79119e-6 0.9999935 0.0036484 -6.82185e-6 -9.94337e-4 0.9999931 0.003601729 -3.54396e-5 0.003600299 -0.9999936 9.94238e-4 -0.999993 -0.003601431 3.56327e-5 -0.003599345 0.9999936 -0.9999934 -0.003650903 7.79009e-6 0.9999935 0.00364834 -7.30746e-6 -9.94083e-4 0.9999931 0.003601849 -3.54396e-5 0.003599345 -0.9999936 9.94138e-4 -0.9999931 -0.003600776 3.64826e-5 -0.003601312 0.9999935 -0.003601908 -5.37963e-5 0.9999935 -0.9999758 -0.005948007 -0.003601253 0.003602385 5.37912e-5 -0.9999935 0.9999758 0.005947947 0.003601491 0.008602201 -0.9999631 -6.82681e-6 -0.008605241 0.9999631 7.68017e-6 -0.003603756 -5.35808e-5 0.9999935 -0.9999758 -0.005947947 -0.003600955 0.003605842 5.40136e-5 -0.9999935 0.9999759 0.005948066 0.003601729 0.008601963 -0.9999631 -7.62238e-6 -0.008604347 0.9999631 7.68019e-6 -1.61418e-7 -0.8910061 -0.4539916 -1.7168e-7 -0.9876884 0.1564342 -1.44089e-7 -0.7071073 0.7071063 0 -0.1564348 0.9876884 0 0.4539906 0.8910065 1.91908e-7 0.8910063 0.4539909 2.09885e-7 0.9876882 -0.1564354 1.7168e-7 0.7071069 -0.7071067 1 -7.92945e-7 0 1 -1.98236e-7 5.60147e-7 1 0 -1.59126e-7 1 -3.96474e-7 7.62789e-7 1 0 -1.59127e-7 1 -5.41807e-7 0 1 6.05757e-7 0 0 0.1564342 -0.9876885 0 -0.4539915 -0.891006 -1 7.4876e-7 0 -1 0 -5.7846e-7 -1 7.92944e-7 0 -1 0 0 -1 -5.9471e-7 5.60148e-7 -1 6.05758e-7 0 -1 0 -1.82003e-7 0.9795386 0.005525112 0.2011808 0.005591034 -0.9910053 -0.1337065 -0.9922338 -0.005597174 -0.124261 -0.005514502 0.9776302 0.210259 -3.72948e-7 -1.94774e-6 1 0.9795386 0.005524933 0.2011811 0.00551486 -0.9776304 0.2102585 -0.9922338 -0.005596697 -0.1242611 -0.005590677 0.9910054 -0.133706 2.68833e-6 -3.88999e-6 1 0.9922339 0.005598068 -0.1242609 0.005590021 -0.9910053 -0.1337063 -0.9795386 -0.00552684 0.2011808 -0.00551486 0.9776302 0.2102589 1.98906e-6 -3.89548e-6 1 0.9922338 0.005597591 -0.1242611 0.005515396 -0.9776304 0.2102584 -0.9795386 -0.005526185 0.2011812 -0.005590319 0.9910053 -0.1337059 0 -1.94774e-6 1 -0.9999934 -0.00364983 8.36563e-6 0.9999934 0.003648519 -7.48431e-6 -9.94221e-4 0.9999931 0.003601908 -3.59588e-5 0.003602802 -0.9999936 9.94442e-4 -0.9999931 -0.0036031 3.6093e-5 -0.003601074 0.9999935 -0.9999933 -0.003651201 8.71634e-6 0.9999934 0.003649055 -7.48551e-6 -9.94003e-4 0.9999931 0.003601491 -3.593e-5 0.003601789 -0.9999935 9.9444e-4 -0.9999931 -0.003602445 3.63092e-5 -0.003601789 0.9999935 -0.00860387 0.9999631 8.48816e-6 0.008602619 -0.9999631 -8.14585e-6 0.9999759 0.005947947 0.003600656 0.003602385 5.40128e-5 -0.9999935 -0.9999759 -0.005948245 -0.003602743 -0.003601253 -5.37166e-5 0.9999936 -0.008604764 0.999963 8.63994e-6 0.008602797 -0.9999631 -8.87323e-6 0.9999758 0.005948007 0.003601253 0.003601491 5.38645e-5 -0.9999935 -0.9999758 -0.005948305 -0.0036031 -0.003599941 -5.40038e-5 0.9999936 -0.9999934 -0.003650605 8.27769e-6 0.9999935 0.003648877 -7.30515e-6 -9.94336e-4 0.9999931 0.003602027 -3.58742e-5 0.003601312 -0.9999935 9.94542e-4 -0.9999931 -0.003602802 3.58517e-5 -0.003601312 0.9999935 -0.9999935 -0.003649771 7.54829e-6 0.9999934 0.003648877 -7.30543e-6 -9.94035e-4 0.9999931 0.003602027 -3.61929e-5 0.003601312 -0.9999935 9.94491e-4 -0.9999931 -0.003602862 3.58517e-5 -0.003601312 0.9999935 -0.003601372 -5.37967e-5 0.9999935 -0.9999759 -0.005948245 -0.003602027 0.003598093 5.40123e-5 -0.9999936 0.9999758 0.005947887 0.003601074 0.008603513 -0.999963 -8.1224e-6 -0.008604586 0.9999631 8.72352e-6 -0.00360465 -5.40244e-5 0.9999935 -0.9999758 -0.005948305 -0.003602921 0.003603756 5.4457e-5 -0.9999935 0.9999758 0.005948066 0.003601491 0.008602499 -0.9999631 -6.25792e-6 -0.008604288 0.999963 7.87128e-6</float_array>
          <technique_common>
            <accessor source="#Circle-mesh-normals-array" count="200" stride="3">
              <param name="X" type="float"/>
              <param name="Y" type="float"/>
              <param name="Z" type="float"/>
            </accessor>
          </technique_common>
        </source>
        <source id="Circle-mesh-map-0">
          <float_array id="Circle-mesh-map-0-array" count="1200">0.06592744 0.5238122 0.07406133 0.5727077 0.06707841 0.5921766 0.06592744 0.5238122 0.06707841 0.5921766 0.0598731 0.6058862 0.06592744 0.5238122 0.0598731 0.6058862 0.08463799 0.5745179 0.06592744 0.5238122 0.08463799 0.5745179 0.0403009 0.6036716 0.06592744 0.5238122 0.0403009 0.6036716 0.0626266 0.5951297 0.06592744 0.5238122 0.0626266 0.5951297 0.04764109 0.5732532 0.06592744 0.5238122 0.04764109 0.5732532 0.05030494 0.5795196 0.06592744 0.5238122 0.05030494 0.5795196 0.0626133 0.5823854 0.06592744 0.5238122 0.0626133 0.5823854 0.06796586 0.589402 0.06592744 0.5238122 0.06796586 0.589402 0.07644689 0.5795196 0.06592744 0.5238122 0.07644689 0.5795196 0.07209408 0.5834592 0.06592744 0.5238122 0.07209408 0.5834592 0.07560706 0.6002327 0.06592744 0.5238122 0.07560706 0.6002327 0.09474337 0.5736914 0.06592744 0.5238122 0.09474337 0.5736914 0.09123039 0.5821725 0.06592744 0.5238122 0.09123039 0.5821725 0.08473926 0.5886636 0.06592744 0.5238122 0.08473926 0.5886636 0.07406133 0.5727077 0.293216 0.9901564 0.3238748 0.920468 0.313202 0.9157505 0.3238748 0.920468 0.2529577 0.9352189 0.3292337 0.9309824 0.2529577 0.9352189 0.3288253 0.9429617 0.3292337 0.9309824 0.2584614 0.9157909 0.3359681 0.9850902 0.3459014 0.9725175 0.3215194 0.9522088 0.3300866 0.8804052 0.3102256 0.954997 0.3300866 0.8804052 0.2996479 0.9499982 0.3102256 0.954997 0.3593536 0.9012674 0.2934277 0.9397352 0.2996479 0.9499982 0.2934277 0.9397352 0.3588342 0.9696934 0.2942552 0.9277663 0.6102547 0.9186102 0.3757011 0.7481969 0.6656253 0.748197 0.3588342 0.9696934 0.3018136 0.9185925 0.2942552 0.9277663 0.3018136 0.9185925 0.293216 0.9901564 0.313202 0.9157505 0.09985464 0.4547067 0.03746223 0.4490197 0.05224323 0.4117531 0.3495637 0.4349157 0.3159604 0.4350078 0.3431693 0.4151318 0.3431693 0.4151318 0.3159604 0.4350078 0.3263543 0.4028815 0.3263543 0.4028815 0.3159604 0.4350078 0.3055428 0.402866 0.3055428 0.402866 0.3159604 0.4350078 0.2887057 0.4150967 0.2887057 0.4150967 0.3159604 0.4350078 0.2822858 0.4348829 0.2822858 0.4348829 0.3159604 0.4350078 0.2887211 0.4546502 0.2887211 0.4546502 0.3159604 0.4350078 0.305533 0.4668564 0.305533 0.4668564 0.3159604 0.4350078 0.3263015 0.4668613 0.3263015 0.4668613 0.3159604 0.4350078 0.3431153 0.4546682 0.3431153 0.4546682 0.3159604 0.4350078 0.3495637 0.4349157 0.2677177 0.4116441 0.3548766 0.4116441 0.3112972 0.4552235 0.2677177 0.4116441 0.3548766 0.4116441 0.3112972 0.4552235 0.3335257 0.4044108 0.3365852 0.4732992 0.3335257 0.4732992 0.2998715 0.4044108 0.302931 0.4732992 0.2998715 0.4732992 0.3457636 0.4044108 0.3427042 0.4732992 0.3427042 0.4044108 0.3304662 0.4044108 0.3274068 0.4732992 0.3274068 0.4044108 0.3488232 0.4044108 0.3457636 0.4009665 0.3488232 0.4009664 0.3212878 0.4732992 0.3243472 0.4044108 0.3243472 0.4732992 0.3059904 0.4044108 0.3090499 0.4732992 0.3059904 0.4732992 0.3396446 0.4044108 0.3427042 0.4732992 0.3396447 0.4732992 0.3335257 0.4044108 0.3304662 0.4732992 0.3304662 0.4044108 0.3365852 0.4009664 0.3335257 0.4044108 0.3335257 0.4009664 0.3121093 0.4044108 0.3151687 0.4732992 0.3121093 0.4732992 0.3121093 0.4044108 0.3090499 0.4732992 0.3090499 0.4044108 0.3151687 0.4732992 0.3182283 0.4044108 0.3182283 0.4732992 0.3365852 0.4044108 0.3396446 0.4732992 0.3365852 0.4732992 0.3304662 0.4044108 0.3274068 0.4009665 0.3304662 0.4009664 0.3182283 0.4732992 0.3212878 0.4044108 0.3212878 0.4732992 0.3059904 0.4044108 0.302931 0.4732992 0.302931 0.4044108 0.3457636 0.4044108 0.3488232 0.4732992 0.3457636 0.4732992 0.3243472 0.4044108 0.3274068 0.4732992 0.3243473 0.4732992 0.3427042 0.4044108 0.3457636 0.4009665 0.3457636 0.4044108 0.3029309 0.4009664 0.3059904 0.4044108 0.3029309 0.4044108 0.2876336 0.3998809 0.2845742 0.4033253 0.2845742 0.3998809 0.2753957 0.4566739 0.2784552 0.4732991 0.2753957 0.4732992 0.2937525 0.4233862 0.2906931 0.4067698 0.2937525 0.4067607 0.2784552 0.4067974 0.2753958 0.4234226 0.2753958 0.4067972 0.2906931 0.4400208 0.2937525 0.4234045 0.2937525 0.44003 0.3182283 0.4044108 0.3212878 0.4009665 0.3212878 0.4044108 0.3121093 0.4044108 0.3090499 0.4009664 0.3121093 0.4009664 0.2753958 0.4400483 0.2784552 0.4566735 0.2753958 0.4566736 0.2937525 0.4566555 0.2906931 0.440039 0.2937525 0.44003 0.2784552 0.4234229 0.2753958 0.4400482 0.2753958 0.4234228 0.296812 0.4233861 0.2998715 0.4067698 0.2998715 0.4233953 0.2937525 0.3998718 0.296812 0.4033162 0.2937525 0.4033162 0.2906931 0.4033162 0.2937525 0.3998719 0.2937525 0.4033162 0.2815147 0.4234135 0.2845742 0.440039 0.2815147 0.440039 0.296812 0.4233861 0.2937525 0.4067698 0.296812 0.4067606 0.2845742 0.4067698 0.2815147 0.4233953 0.2815147 0.4067698 0.296812 0.4566555 0.2998715 0.440039 0.2998715 0.4566646 0.2998715 0.4033162 0.296812 0.3998718 0.2998715 0.3998718 0.3151689 0.4009665 0.3182283 0.4044108 0.3151689 0.4044108 0.2815147 0.4400482 0.2845742 0.4566736 0.2815147 0.4566736 0.296812 0.4400208 0.2937525 0.4234045 0.296812 0.4233953 0.2845742 0.4400299 0.2876336 0.4234045 0.2876336 0.44003 0.2998715 0.4566738 0.296812 0.47329 0.296812 0.4566646 0.3212878 0.4044108 0.3243472 0.4009665 0.3243472 0.4044108 0.2845742 0.4033254 0.2876336 0.4067698 0.2845742 0.4067698 0.2784552 0.4400483 0.2815147 0.4566735 0.2784552 0.4566736 0.2906931 0.4566555 0.2876336 0.440039 0.2906931 0.44003 0.2784552 0.440048 0.2815147 0.4234228 0.2815147 0.4400482 0.296812 0.4566738 0.2937525 0.47329 0.2937525 0.4566646 0.296812 0.4033162 0.2998715 0.4067606 0.296812 0.4067606 0.296812 0.4067606 0.2937525 0.4033162 0.296812 0.4033162 0.2784552 0.4566739 0.2815147 0.4732991 0.2784552 0.4732992 0.2876336 0.4067698 0.2906931 0.4233862 0.2876336 0.4233953 0.2815147 0.4067881 0.2784552 0.4234134 0.2784552 0.4067881 0.2876336 0.4400208 0.2906931 0.4234045 0.2906931 0.44003 0.2998715 0.4566738 0.296812 0.47329 0.296812 0.4566646 0.2845742 0.4400299 0.2876336 0.4234045 0.2876336 0.44003 0.296812 0.4400208 0.2937525 0.4234045 0.296812 0.4233953 0.2815147 0.4400482 0.2845742 0.4566736 0.2815147 0.4566736 0.3151689 0.4009665 0.3182283 0.4044108 0.3151689 0.4044108 0.2998715 0.4033162 0.296812 0.3998718 0.2998715 0.3998718 0.296812 0.4566555 0.2998715 0.440039 0.2998715 0.4566646 0.2845742 0.4067698 0.2815147 0.4233953 0.2815147 0.4067698 0.296812 0.4233861 0.2937525 0.4067698 0.296812 0.4067606 0.2815147 0.4234135 0.2845742 0.440039 0.2815147 0.440039 0.2906931 0.3998719 0.2937525 0.4033162 0.2906931 0.4033162 0.2937525 0.3998718 0.296812 0.4033162 0.2937525 0.4033162 0.293216 0.9901564 0.264034 0.9690408 0.3238748 0.920468 0.3238748 0.920468 0.264034 0.9690408 0.2529577 0.9352189 0.2529577 0.9352189 0.2645137 0.9012395 0.3288253 0.9429617 0.2584614 0.9157909 0.2984925 0.8874639 0.3359681 0.9850902 0.3215194 0.9522088 0.2939563 0.8804052 0.3300866 0.8804052 0.3300866 0.8804052 0.3593536 0.9012674 0.2996479 0.9499982 0.3593536 0.9012674 0.3704012 0.9355439 0.2934277 0.9397352 0.2934277 0.9397352 0.3704012 0.9355439 0.3588342 0.9696934 0.5206633 0.6428758 0.6102548 0.6719859 0.6656253 0.748197 0.6656253 0.748197 0.6656253 0.8423991 0.6102547 0.9186102 0.6102547 0.9186102 0.5206632 0.9477202 0.3757011 0.7481969 0.4310716 0.91861 0.3757011 0.8423991 0.3757011 0.7481969 0.3757011 0.7481969 0.4310718 0.6719858 0.5206633 0.6428758 0.5206633 0.6428758 0.6656253 0.748197 0.3757011 0.7481969 0.5206632 0.9477202 0.4310716 0.91861 0.3757011 0.7481969 0.3588342 0.9696934 0.3293207 0.9904629 0.3018136 0.9185925 0.3018136 0.9185925 0.3293207 0.9904629 0.293216 0.9901564 0.05224323 0.4117531 0.07231676 0.4067439 0.09985464 0.4547067 0.09112882 0.4150589 0.1005744 0.4335917 0.09985464 0.4547067 0.09985464 0.4547067 0.08697718 0.4710059 0.06707042 0.4759204 0.06707042 0.4759204 0.04842597 0.4671095 0.03746223 0.4490197 0.03746223 0.4490197 0.03892076 0.4279231 0.05224323 0.4117531 0.07231676 0.4067439 0.09112882 0.4150589 0.09985464 0.4547067 0.09985464 0.4547067 0.06707042 0.4759204 0.03746223 0.4490197 0.3335257 0.4044108 0.3365852 0.4044108 0.3365852 0.4732992 0.2998715 0.4044108 0.302931 0.4044108 0.302931 0.4732992 0.3457636 0.4044108 0.3457636 0.4732992 0.3427042 0.4732992 0.3304662 0.4044108 0.3304662 0.4732992 0.3274068 0.4732992 0.3488232 0.4044108 0.3457636 0.4044108 0.3457636 0.4009665 0.3212878 0.4732992 0.3212878 0.4044108 0.3243472 0.4044108 0.3059904 0.4044108 0.3090499 0.4044108 0.3090499 0.4732992 0.3396446 0.4044108 0.3427042 0.4044108 0.3427042 0.4732992 0.3335257 0.4044108 0.3335257 0.4732992 0.3304662 0.4732992 0.3365852 0.4009664 0.3365852 0.4044108 0.3335257 0.4044108 0.3121093 0.4044108 0.3151687 0.4044108 0.3151687 0.4732992 0.3121093 0.4044108 0.3121093 0.4732992 0.3090499 0.4732992 0.3151687 0.4732992 0.3151687 0.4044108 0.3182283 0.4044108 0.3365852 0.4044108 0.3396446 0.4044108 0.3396446 0.4732992 0.3304662 0.4044108 0.3274068 0.4044108 0.3274068 0.4009665 0.3182283 0.4732992 0.3182283 0.4044108 0.3212878 0.4044108 0.3059904 0.4044108 0.3059904 0.4732992 0.302931 0.4732992 0.3457636 0.4044108 0.3488232 0.4044108 0.3488232 0.4732992 0.3243472 0.4044108 0.3274068 0.4044108 0.3274068 0.4732992 0.3427042 0.4044108 0.3427042 0.4009665 0.3457636 0.4009665 0.3029309 0.4009664 0.3059904 0.4009665 0.3059904 0.4044108 0.2876336 0.3998809 0.2876336 0.4033254 0.2845742 0.4033253 0.2753957 0.4566739 0.2784552 0.4566738 0.2784552 0.4732991 0.2937525 0.4233862 0.2906931 0.4233953 0.2906931 0.4067698 0.2784552 0.4067974 0.2784552 0.4234227 0.2753958 0.4234226 0.2906931 0.4400208 0.2906931 0.4233953 0.2937525 0.4234045 0.3182283 0.4044108 0.3182283 0.4009664 0.3212878 0.4009665 0.3121093 0.4044108 0.3090499 0.4044108 0.3090499 0.4009664 0.2753958 0.4400483 0.2784552 0.4400482 0.2784552 0.4566735 0.2937525 0.4566555 0.2906931 0.4566646 0.2906931 0.440039 0.2784552 0.4234229 0.2784552 0.4400482 0.2753958 0.4400482 0.296812 0.4233861 0.296812 0.4067606 0.2998715 0.4067698 0.2937525 0.3998718 0.296812 0.3998719 0.296812 0.4033162 0.2906931 0.4033162 0.2906931 0.3998719 0.2937525 0.3998719 0.2815147 0.4234135 0.2845742 0.4234135 0.2845742 0.440039 0.296812 0.4233861 0.2937525 0.4233953 0.2937525 0.4067698 0.2845742 0.4067698 0.2845742 0.4233953 0.2815147 0.4233953 0.296812 0.4566555 0.296812 0.44003 0.2998715 0.440039 0.2998715 0.4033162 0.296812 0.4033161 0.296812 0.3998718 0.3151689 0.4009665 0.3182283 0.4009665 0.3182283 0.4044108 0.2815147 0.4400482 0.2845742 0.4400482 0.2845742 0.4566736 0.296812 0.4400208 0.2937525 0.44003 0.2937525 0.4234045 0.2845742 0.4400299 0.2845742 0.4234044 0.2876336 0.4234045 0.2998715 0.4566738 0.2998715 0.4732992 0.296812 0.47329 0.3212878 0.4044108 0.3212878 0.4009664 0.3243472 0.4009665 0.2845742 0.4033254 0.2876336 0.4033254 0.2876336 0.4067698 0.2784552 0.4400483 0.2815147 0.4400482 0.2815147 0.4566735 0.2906931 0.4566555 0.2876336 0.4566646 0.2876336 0.440039 0.2784552 0.440048 0.2784552 0.4234227 0.2815147 0.4234228 0.296812 0.4566738 0.296812 0.4732992 0.2937525 0.47329 0.296812 0.4033162 0.2998715 0.4033162 0.2998715 0.4067606 0.296812 0.4067606 0.2937525 0.4067606 0.2937525 0.4033162 0.2784552 0.4566739 0.2815147 0.4566738 0.2815147 0.4732991 0.2876336 0.4067698 0.2906931 0.4067607 0.2906931 0.4233862 0.2815147 0.4067881 0.2815147 0.4234135 0.2784552 0.4234134 0.2876336 0.4400208 0.2876336 0.4233953 0.2906931 0.4234045 0.2998715 0.4566738 0.2998715 0.4732992 0.296812 0.47329 0.2845742 0.4400299 0.2845742 0.4234044 0.2876336 0.4234045 0.296812 0.4400208 0.2937525 0.44003 0.2937525 0.4234045 0.2815147 0.4400482 0.2845742 0.4400482 0.2845742 0.4566736 0.3151689 0.4009665 0.3182283 0.4009665 0.3182283 0.4044108 0.2998715 0.4033162 0.296812 0.4033161 0.296812 0.3998718 0.296812 0.4566555 0.296812 0.44003 0.2998715 0.440039 0.2845742 0.4067698 0.2845742 0.4233953 0.2815147 0.4233953 0.296812 0.4233861 0.2937525 0.4233953 0.2937525 0.4067698 0.2815147 0.4234135 0.2845742 0.4234135 0.2845742 0.440039 0.2906931 0.3998719 0.2937525 0.3998719 0.2937525 0.4033162 0.2937525 0.3998718 0.296812 0.3998719 0.296812 0.4033162</float_array>
          <technique_common>
            <accessor source="#Circle-mesh-map-0-array" count="600" stride="2">
              <param name="S" type="float"/>
              <param name="T" type="float"/>
            </accessor>
          </technique_common>
        </source>
        <vertices id="Circle-mesh-vertices">
          <input semantic="POSITION" source="#Circle-mesh-positions"/>
        </vertices>
        <polylist count="200">
          <input semantic="VERTEX" source="#Circle-mesh-vertices" offset="0"/>
          <input semantic="NORMAL" source="#Circle-mesh-normals" offset="1"/>
          <input semantic="TEXCOORD" source="#Circle-mesh-map-0" offset="2" set="0"/>
          <vcount>3 3 3 3 3 3 3 3 3 3 3 3 3 3 3 3 3 3 3 3 3 3 3 3 3 3 3 3 3 3 3 3 3 3 3 3 3 3 3 3 3 3 3 3 3 3 3 3 3 3 3 3 3 3 3 3 3 3 3 3 3 3 3 3 3 3 3 3 3 3 3 3 3 3 3 3 3 3 3 3 3 3 3 3 3 3 3 3 3 3 3 3 3 3 3 3 3 3 3 3 3 3 3 3 3 3 3 3 3 3 3 3 3 3 3 3 3 3 3 3 3 3 3 3 3 3 3 3 3 3 3 3 3 3 3 3 3 3 3 3 3 3 3 3 3 3 3 3 3 3 3 3 3 3 3 3 3 3 3 3 3 3 3 3 3 3 3 3 3 3 3 3 3 3 3 3 3 3 3 3 3 3 3 3 3 3 3 3 3 3 3 3 3 3 3 3 3 3 3 3 </vcount>
          <p>0 0 0 1 0 1 2 0 2 0 1 3 2 1 4 3 1 5 0 2 6 3 2 7 4 2 8 0 3 9 4 3 10 5 3 11 0 4 12 5 4 13 6 4 14 0 5 15 6 5 16 7 5 17 0 6 18 7 6 19 8 6 20 0 7 21 8 7 22 9 7 23 0 8 24 9 8 25 10 8 26 0 9 27 10 9 28 11 9 29 0 10 30 11 10 31 12 10 32 0 11 33 12 11 34 13 11 35 0 12 36 13 12 37 14 12 38 0 13 39 14 13 40 15 13 41 0 14 42 15 14 43 16 14 44 0 15 45 16 15 46 1 15 47 18 16 48 19 16 49 17 16 50 19 17 51 22 17 52 21 17 53 22 18 54 23 18 55 21 18 56 24 19 57 25 19 58 23 19 59 25 20 60 28 20 61 27 20 62 28 21 63 29 21 64 27 21 65 30 22 66 31 22 67 29 22 68 31 23 69 34 23 70 33 23 71 34 24 72 26 24 73 18 24 74 34 25 75 35 25 76 33 25 77 35 26 78 18 26 79 17 26 80 23 27 81 31 27 82 35 27 83 18 28 84 37 28 85 20 28 86 20 29 87 37 29 88 22 29 89 22 30 90 37 30 91 24 30 92 24 31 93 37 31 94 26 31 95 26 32 96 37 32 97 28 32 98 28 33 99 37 33 100 30 33 101 30 34 102 37 34 103 32 34 104 32 35 105 37 35 106 34 35 107 34 36 108 37 36 109 36 36 110 36 37 111 37 37 112 18 37 113 39 38 114 40 38 115 38 38 116 42 39 117 43 39 118 41 39 119 45 40 120 46 40 121 44 40 122 47 41 123 50 41 124 46 41 125 49 42 126 50 42 127 51 42 128 45 43 129 48 43 130 49 43 131 49 44 132 47 44 133 45 44 134 55 45 135 52 45 136 53 45 137 55 46 138 58 46 139 54 46 140 59 47 141 56 47 142 58 47 143 53 48 144 56 48 145 57 48 146 57 49 147 55 49 148 53 49 149 61 50 150 62 50 151 60 50 152 67 51 153 62 51 154 63 51 155 65 52 156 66 52 157 67 52 158 65 53 159 60 53 160 64 53 161 67 54 162 61 54 163 65 54 164 71 55 165 68 55 166 69 55 167 75 56 168 70 56 169 71 56 170 75 57 171 72 57 172 74 57 173 73 58 174 68 58 175 72 58 176 75 59 177 69 59 178 73 59 179 78 60 180 80 60 181 82 60 182 83 61 183 77 61 184 79 61 185 78 62 186 83 62 187 79 62 188 76 63 189 79 63 190 77 63 191 76 64 192 81 64 193 80 64 194 80 65 195 83 65 196 82 65 197 84 66 198 90 66 199 86 66 200 91 67 201 85 67 202 87 67 203 86 68 204 91 68 205 87 68 206 84 69 207 87 69 208 85 69 209 84 70 210 89 70 211 88 70 212 88 71 213 91 71 214 90 71 215 94 72 216 96 72 217 98 72 218 99 73 219 93 73 220 95 73 221 94 74 222 99 74 223 95 74 224 92 75 225 95 75 226 93 75 227 92 76 228 97 76 229 96 76 230 96 77 231 99 77 232 98 77 233 102 78 234 104 78 235 106 78 236 107 79 237 101 79 238 103 79 239 102 80 240 107 80 241 103 80 242 100 81 243 103 81 244 101 81 245 100 82 246 105 82 247 104 82 248 104 83 249 107 83 250 106 83 251 108 84 252 114 84 253 110 84 254 115 85 255 109 85 256 111 85 257 110 86 258 115 86 259 111 86 260 108 87 261 111 87 262 109 87 263 108 88 264 113 88 265 112 88 266 112 89 267 115 89 268 114 89 269 116 90 270 122 90 271 118 90 272 123 91 273 117 91 274 119 91 275 118 92 276 123 92 277 119 92 278 116 93 279 119 93 280 117 93 281 116 94 282 121 94 283 120 94 284 120 95 285 123 95 286 122 95 287 127 96 288 124 96 289 125 96 290 131 97 291 126 97 292 127 97 293 131 98 294 128 98 295 130 98 296 129 99 297 124 99 298 128 99 299 124 100 300 130 100 301 128 100 302 129 101 303 127 101 304 125 101 305 135 102 306 132 102 307 133 102 308 139 103 309 134 103 310 135 103 311 139 104 312 136 104 313 138 104 314 137 105 315 132 105 316 136 105 317 134 106 318 136 106 319 132 106 320 137 107 321 135 107 322 133 107 323 18 108 324 20 108 325 19 108 326 19 109 327 20 109 328 22 109 329 22 110 330 24 110 331 23 110 332 24 111 333 26 111 334 25 111 335 25 112 336 26 112 337 28 112 338 28 113 339 30 113 340 29 113 341 30 114 342 32 114 343 31 114 344 31 115 345 32 115 346 34 115 347 22 116 348 20 116 349 18 116 350 18 117 351 36 117 352 34 117 353 34 118 354 32 118 355 26 118 356 30 119 357 28 119 358 26 119 359 26 120 360 24 120 361 22 120 362 22 121 363 18 121 364 26 121 365 32 122 366 30 122 367 26 122 368 34 123 369 36 123 370 35 123 371 35 124 372 36 124 373 18 124 374 35 125 375 17 125 376 23 125 377 19 126 378 21 126 379 23 126 380 23 127 381 25 127 382 27 127 383 27 128 384 29 128 385 31 128 386 31 129 387 33 129 388 35 129 389 17 130 390 19 130 391 23 130 392 23 131 393 27 131 394 31 131 395 45 132 396 47 132 397 46 132 398 47 133 399 51 133 400 50 133 401 49 134 402 48 134 403 50 134 404 45 135 405 44 135 406 48 135 407 49 136 408 51 136 409 47 136 410 55 137 411 54 137 412 52 137 413 55 138 414 59 138 415 58 138 416 59 139 417 57 139 418 56 139 419 53 140 420 52 140 421 56 140 422 57 141 423 59 141 424 55 141 425 61 142 426 63 142 427 62 142 428 67 143 429 66 143 430 62 143 431 65 144 432 64 144 433 66 144 434 65 145 435 61 145 436 60 145 437 67 146 438 63 146 439 61 146 440 71 147 441 70 147 442 68 147 443 75 148 444 74 148 445 70 148 446 75 149 447 73 149 448 72 149 449 73 150 450 69 150 451 68 150 452 75 151 453 71 151 454 69 151 455 78 152 456 76 152 457 80 152 458 83 153 459 81 153 460 77 153 461 78 154 462 82 154 463 83 154 464 76 155 465 78 155 466 79 155 467 76 156 468 77 156 469 81 156 470 80 157 471 81 157 472 83 157 473 84 158 474 88 158 475 90 158 476 91 159 477 89 159 478 85 159 479 86 160 480 90 160 481 91 160 482 84 161 483 86 161 484 87 161 485 84 162 486 85 162 487 89 162 488 88 163 489 89 163 490 91 163 491 94 164 492 92 164 493 96 164 494 99 165 495 97 165 496 93 165 497 94 166 498 98 166 499 99 166 500 92 167 501 94 167 502 95 167 503 92 168 504 93 168 505 97 168 506 96 169 507 97 169 508 99 169 509 102 170 510 100 170 511 104 170 512 107 171 513 105 171 514 101 171 515 102 172 516 106 172 517 107 172 518 100 173 519 102 173 520 103 173 521 100 174 522 101 174 523 105 174 524 104 175 525 105 175 526 107 175 527 108 176 528 112 176 529 114 176 530 115 177 531 113 177 532 109 177 533 110 178 534 114 178 535 115 178 536 108 179 537 110 179 538 111 179 539 108 180 540 109 180 541 113 180 542 112 181 543 113 181 544 115 181 545 116 182 546 120 182 547 122 182 548 123 183 549 121 183 550 117 183 551 118 184 552 122 184 553 123 184 554 116 185 555 118 185 556 119 185 557 116 186 558 117 186 559 121 186 560 120 187 561 121 187 562 123 187 563 127 188 564 126 188 565 124 188 566 131 189 567 130 189 568 126 189 569 131 190 570 129 190 571 128 190 572 129 191 573 125 191 574 124 191 575 124 192 576 126 192 577 130 192 578 129 193 579 131 193 580 127 193 581 135 194 582 134 194 583 132 194 584 139 195 585 138 195 586 134 195 587 139 196 588 137 196 589 136 196 590 137 197 591 133 197 592 132 197 593 134 198 594 138 198 595 136 198 596 137 199 597 139 199 598 135 199 599</p>
        </polylist>
      </mesh>
    </geometry>
  </library_geometries>
  <library_controllers/>
  <library_visual_scenes>
    <visual_scene id="Scene" name="Scene">
      <node id="Camera" name="Camera" type="NODE">
        <matrix sid="transform">0.6858805 -0.3173701 0.6548619 7.481132 0.7276338 0.3124686 -0.6106656 -6.50764 -0.01081678 0.8953432 0.4452454 5.343665 0 0 0 1</matrix>
        <instance_camera url="#Camera-camera"/>
      </node>
      <node id="Lamp" name="Lamp" type="NODE">
        <matrix sid="transform">-0.2908646 -0.7711008 0.5663932 4.076245 0.9551712 -0.1998834 0.2183912 1.005454 -0.05518906 0.6045247 0.7946723 5.903862 0 0 0 1</matrix>
        <instance_light url="#Lamp-light"/>
      </node>
      <node id="Circle" name="Circle" type="NODE">
        <matrix sid="transform">0.3989818 0 0 0 0 0.3989818 5.36067e-8 0 0 -5.36067e-8 0.3989818 0 0 0 0 1</matrix>
        <instance_geometry url="#Circle-mesh" name="Circle"/>
      </node>
    </visual_scene>
  </library_visual_scenes>
  <scene>
    <instance_visual_scene url="#Scene"/>
  </scene>
</COLLADA>